<svg width="24" height="24" version="1.1" viewBox="0 0 6.35 6.35" xmlns="http://www.w3.org/2000/svg">
 <g transform="translate(.26456 -290.92)">
  <circle cx="2.9104" cy="294.09" r="2.6458" fill="#636363" stroke-width=".66123"/>
  <g transform="matrix(.69226 -.69226 .69226 .69226 -202.69 92.516)" fill="#fff" stroke-width=".28984">
   <rect x="1.3229" y="293.96" width="3.175" height=".26458"/>
   <rect transform="matrix(2.8944e-6 -1 1 -2.8944e-6 0 0)" x="-295.68" y="2.779" width="3.1752" height=".2646" stroke-width=".28986"/>
  </g>
 </g>
</svg>
