<svg width="24" height="24" version="1.1" viewBox="0 0 6.35 6.35" xmlns="http://www.w3.org/2000/svg">
 <g transform="translate(0 -290.91)">
  <circle cx="3.175" cy="294.09" r="2.6458" fill="#323030" stroke-width=".66123"/>
  <circle cx="3.175" cy="294.09" r="1.0583" fill="#fff" stroke-width=".2645"/>
 </g>
</svg>
