<svg width="24" height="24" version="1.1" viewBox="0 0 6.35 6.35" xmlns="http://www.w3.org/2000/svg">
 <g transform="translate(0 -290.91)">
  <circle cx="3.175" cy="294.09" r="2.6458" fill="#505050" stroke-width=".66123"/>
  <rect transform="matrix(0 -1 .6 0 -123.1 88.367)" x="-206.78" y="208.69" width=".26458" height="2.6458" fill="#fff" stroke-width=".19721"/>
  <g transform="matrix(-.70712 -.28342 .70712 -.28342 -203.08 378.53)">
   <rect transform="rotate(-45)" x="-206.78" y="208.68" width=".26458" height="2.6458" fill="#fff" stroke-width=".19721"/>
  </g>
  <g transform="matrix(-.70711 -.28285 .70711 -.28285 -204.4 378.36)">
   <rect transform="rotate(-45)" x="-206.78" y="208.69" width=".26458" height="2.6458" fill="#fff" stroke-width=".19721"/>
  </g>
  <g transform="matrix(.42427 -.70711 .42427 .70711 -123.09 87.038)">
   <rect transform="rotate(-45)" x="-206.79" y="208.67" width=".26458" height="2.6458" fill="#fff" stroke-width=".19721"/>
  </g>
  <g transform="matrix(1 0 0 .99532 -3.8027e-6 2.6959)">
   <g transform="matrix(-.70711 -.35522 .70711 -.35522 -202.55 398.13)">
    <rect transform="rotate(-45)" x="-206.78" y="208.68" width=".26458" height="2.6458" fill="#a3a3a3" stroke-width=".19721"/>
   </g>
  </g>
  <g transform="matrix(.42427 -.70711 .42427 .70711 -122.56 86.509)">
   <rect transform="rotate(-45)" x="-206.79" y="208.67" width=".26458" height="2.6458" fill="#a3a3a3" stroke-width=".19721"/>
  </g>
 </g>
</svg>
