<svg width="24" height="24" version="1.1" viewBox="0 0 6.35 6.35" xmlns="http://www.w3.org/2000/svg">
 <g transform="translate(0 -290.91)">
  <circle cx="3.175" cy="294.09" r="2.6458" fill="none" stroke-width=".66123"/>
  <path transform="matrix(.26458 0 0 .26458 0 290.91)" d="m8 10v1 4 1h6v-1-4-1h-6zm1 1h4v4h-4v-4z" fill="#fff" stroke-width=".57736"/>
  <g transform="matrix(1 0 0 .99532 -3.8027e-6 2.6959)">
   <g transform="matrix(-.70711 -.35522 .70711 -.35522 -202.55 398.13)">
    <rect transform="rotate(-45)" x="-206.78" y="208.68" width=".26458" height="2.6458" fill="#a3a3a3" stroke-width=".19721"/>
   </g>
  </g>
  <g transform="matrix(.42427 -.70711 .42427 .70711 -122.56 86.509)">
   <rect transform="rotate(-45)" x="-206.79" y="208.67" width=".26458" height="2.6458" fill="#a3a3a3" stroke-width=".19721"/>
  </g>
 </g>
</svg>
