<svg width="24" height="24" version="1.1" viewBox="0 0 6.35 6.35" xmlns="http://www.w3.org/2000/svg">
 <g transform="translate(0 -290.91)">
  <circle cx="3.175" cy="294.09" r="2.6458" fill="#B5B5B5" stroke-width=".66123"/>
  <g transform="matrix(.56569 -.70711 .56569 .70711 -164.84 88.637)">
   <rect transform="rotate(-45)" x="-206.51" y="208.69" width=".26458" height="2.6458" fill="#3D3D3D" stroke-width=".19721"/>
  </g>
  <g transform="matrix(-.70711 -.56569 .70711 -.56569 -202.55 462.1)">
   <rect transform="rotate(-45)" x="-206.78" y="208.69" width=".26458" height="2.6458" fill="#3D3D3D" stroke-width=".19721"/>
  </g>
  <g transform="matrix(-.70712 -.56569 .70712 -.56569 -204.4 462.1)">
   <rect transform="rotate(-45)" x="-206.78" y="208.69" width=".26458" height="2.6458" fill="#3D3D3D" stroke-width=".19721"/>
  </g>
  <g transform="matrix(.56569 -.70711 .56569 .70711 -164.84 86.515)">
   <rect transform="rotate(-45)" x="-206.78" y="208.69" width=".26458" height="2.6458" fill="#3D3D3D" stroke-width=".19721"/>
  </g>
 </g>
</svg>
