<?xml version="1.0" encoding="UTF-8" standalone="no"?>
<svg
   xmlns:dc="http://purl.org/dc/elements/1.1/"
   xmlns:cc="http://creativecommons.org/ns#"
   xmlns:rdf="http://www.w3.org/1999/02/22-rdf-syntax-ns#"
   xmlns:svg="http://www.w3.org/2000/svg"
   xmlns="http://www.w3.org/2000/svg"
   xmlns:xlink="http://www.w3.org/1999/xlink"
   xmlns:sodipodi="http://sodipodi.sourceforge.net/DTD/sodipodi-0.dtd"
   xmlns:inkscape="http://www.inkscape.org/namespaces/inkscape"
   inkscape:export-ydpi="96"
   inkscape:export-xdpi="96"
   width="400"
   height="300"
   id="svg11300"
   sodipodi:version="0.32"
   inkscape:version="0.92.5 (2060ec1f9f, 2020-04-08)"
   sodipodi:docname="software-properties.svg"
   inkscape:output_extension="org.inkscape.output.svg.inkscape"
   version="1.0"
   style="display:inline;enable-background:new"
   inkscape:export-filename="C:\Users\sblav\Pictures\preferences-system-network.png">
  <title
     id="title3004">Yaru Icon Theme Template</title>
  <sodipodi:namedview
     stroke="#ef2929"
     fill="#f57900"
     id="base"
     pagecolor="#ffffff"
     bordercolor="#000000"
     borderopacity="0.25490196"
     inkscape:pageopacity="0"
     inkscape:pageshadow="2"
     inkscape:zoom="1"
     inkscape:cx="351.30905"
     inkscape:cy="73.373984"
     inkscape:current-layer="layer6"
     showgrid="false"
     inkscape:grid-bbox="true"
     inkscape:document-units="px"
     inkscape:showpageshadow="false"
     inkscape:window-width="1366"
     inkscape:window-height="704"
     inkscape:window-x="0"
     inkscape:window-y="27"
     width="400px"
     height="300px"
     inkscape:snap-nodes="true"
     inkscape:snap-bbox="true"
     gridtolerance="10000"
     inkscape:object-nodes="true"
     inkscape:snap-grids="true"
     showguides="true"
     inkscape:guide-bbox="true"
     inkscape:window-maximized="1"
     inkscape:bbox-paths="true"
     inkscape:snap-bbox-midpoints="true"
     inkscape:snap-global="true"
     inkscape:object-paths="true"
     inkscape:snap-intersection-paths="true"
     inkscape:snap-smooth-nodes="true"
     inkscape:pagecheckerboard="false"
     showborder="false"
     inkscape:document-rotation="0">
    <inkscape:grid
       spacingy="1"
       spacingx="1"
       id="grid5883"
       type="xygrid"
       enabled="true"
       visible="true"
       empspacing="4"
       snapvisiblegridlinesonly="true"
       originx="0"
       originy="0" />
    <inkscape:grid
       type="xygrid"
       id="grid11592"
       empspacing="2"
       visible="true"
       enabled="false"
       spacingx="0.5"
       spacingy="0.5"
       color="#ff0000"
       opacity="0.1254902"
       empcolor="#ff0000"
       empopacity="0.25098039"
       snapvisiblegridlinesonly="true"
       originx="0"
       originy="0" />
  </sodipodi:namedview>
  <defs
     id="defs3">
    <filter
       inkscape:collect="always"
       style="color-interpolation-filters:sRGB"
       id="filter48952"
       x="-0.048"
       width="1.096"
       y="-0.048"
       height="1.096">
      <feGaussianBlur
         inkscape:collect="always"
         stdDeviation="4.48"
         id="feGaussianBlur48954" />
    </filter>
    <filter
       inkscape:collect="always"
       style="color-interpolation-filters:sRGB"
       id="filter48967"
       x="-0.012"
       width="1.024"
       y="-0.012"
       height="1.024">
      <feGaussianBlur
         inkscape:collect="always"
         stdDeviation="1.12"
         id="feGaussianBlur48969" />
    </filter>
    <linearGradient
       gradientTransform="translate(-306.88,-264.00001)"
       inkscape:collect="always"
       xlink:href="#linearGradient980"
       id="linearGradient982"
       x1="458.88"
       y1="348"
       x2="458.88"
       y2="500"
       gradientUnits="userSpaceOnUse" />
    <linearGradient
       inkscape:collect="always"
       id="linearGradient980">
      <stop
         style="stop-color:#000000;stop-opacity:1;"
         offset="0"
         id="stop976" />
      <stop
         style="stop-color:#000000;stop-opacity:0;"
         offset="1"
         id="stop978" />
    </linearGradient>
    <filter
       inkscape:collect="always"
       style="color-interpolation-filters:sRGB"
       id="filter1003"
       x="-0.059999999"
       width="1.12"
       y="-0.059999999"
       height="1.12">
      <feGaussianBlur
         inkscape:collect="always"
         stdDeviation="4.4"
         id="feGaussianBlur1005" />
    </filter>
    <filter
       inkscape:collect="always"
       style="color-interpolation-filters:sRGB"
       id="filter1066"
       x="-0.0070588235"
       width="1.0141176"
       y="-0.039999999"
       height="1.08">
      <feGaussianBlur
         inkscape:collect="always"
         stdDeviation="0.4"
         id="feGaussianBlur1068" />
    </filter>
    <filter
       inkscape:collect="always"
       style="color-interpolation-filters:sRGB"
       id="filter1062-3"
       x="-0.012133807"
       width="1.0242676"
       y="-0.011869112"
       height="1.0237381">
      <feGaussianBlur
         inkscape:collect="always"
         stdDeviation="0.67258301"
         id="feGaussianBlur1064-6" />
    </filter>
    <linearGradient
       inkscape:collect="always"
       xlink:href="#linearGradient927"
       id="linearGradient8590-3-3-4"
       gradientUnits="userSpaceOnUse"
       gradientTransform="matrix(0.0760869,0,0,0.07608688,320.69566,236.69567)"
       x1="96"
       y1="4.0000062"
       x2="96"
       y2="188" />
    <linearGradient
       inkscape:collect="always"
       id="linearGradient927">
      <stop
         style="stop-color:#ffffff;stop-opacity:1;"
         offset="0"
         id="stop923" />
      <stop
         id="stop933"
         offset="0.125"
         style="stop-color:#ffffff;stop-opacity:0.09803922" />
      <stop
         id="stop931"
         offset="0.92500001"
         style="stop-color:#ffffff;stop-opacity:0.09803922" />
      <stop
         style="stop-color:#ffffff;stop-opacity:0.49803922"
         offset="1"
         id="stop925" />
    </linearGradient>
    <linearGradient
       inkscape:collect="always"
       xlink:href="#linearGradient927"
       id="linearGradient8590-3-3"
       gradientUnits="userSpaceOnUse"
       gradientTransform="matrix(0.11956515,0,0,0.11956513,320.52176,188.52174)"
       x1="95.999878"
       y1="3.9999957"
       x2="95.999878"
       y2="188.00014" />
    <linearGradient
       inkscape:collect="always"
       xlink:href="#linearGradient927"
       id="linearGradient8590-3"
       gradientUnits="userSpaceOnUse"
       gradientTransform="matrix(0.15217394,0,0,0.15217387,321.3913,133.39129)"
       x1="96"
       y1="4.0000062"
       x2="96"
       y2="188" />
    <linearGradient
       inkscape:collect="always"
       xlink:href="#linearGradient927"
       id="linearGradient8590"
       gradientUnits="userSpaceOnUse"
       gradientTransform="matrix(0.23913043,0,0,0.23913032,321.04348,61.043498)"
       x1="96"
       y1="4.0000062"
       x2="96"
       y2="188" />
    <filter
       inkscape:collect="always"
       style="color-interpolation-filters:sRGB"
       id="filter13527-7"
       x="-0.012015007"
       width="1.02403"
       y="-0.011985031"
       height="1.0239701">
      <feGaussianBlur
         inkscape:collect="always"
         stdDeviation="0.08010335"
         id="feGaussianBlur13529-5" />
    </filter>
    <filter
       inkscape:collect="always"
       style="color-interpolation-filters:sRGB"
       id="filter13508-3"
       x="-0.04806003"
       width="1.0961201"
       y="-0.047940124"
       height="1.0958802">
      <feGaussianBlur
         inkscape:collect="always"
         stdDeviation="0.3204134"
         id="feGaussianBlur13510-5" />
    </filter>
  </defs>
  <metadata
     id="metadata4">
    <rdf:RDF>
      <cc:Work
         rdf:about="">
        <dc:format>image/svg+xml</dc:format>
        <dc:type
           rdf:resource="http://purl.org/dc/dcmitype/StillImage" />
        <dc:creator>
          <cc:Agent>
            <dc:title>Yaru Team, based on the Suru template by Sam Hewitt and original Suru designs by Matthieu James</dc:title>
          </cc:Agent>
        </dc:creator>
        <dc:source />
        <cc:license
           rdf:resource="http://creativecommons.org/licenses/by-sa/4.0/" />
        <dc:title>Yaru Icon Theme Template</dc:title>
        <dc:subject>
          <rdf:Bag />
        </dc:subject>
        <dc:date />
        <dc:rights>
          <cc:Agent>
            <dc:title />
          </cc:Agent>
        </dc:rights>
        <dc:publisher>
          <cc:Agent>
            <dc:title />
          </cc:Agent>
        </dc:publisher>
        <dc:identifier />
        <dc:relation />
        <dc:language />
        <dc:coverage />
        <dc:description />
        <dc:contributor>
          <cc:Agent>
            <dc:title />
          </cc:Agent>
        </dc:contributor>
      </cc:Work>
      <cc:Work
         rdf:about="">
        <dc:format>image/svg+xml</dc:format>
        <dc:type
           rdf:resource="http://purl.org/dc/dcmitype/StillImage" />
      </cc:Work>
      <cc:License
         rdf:about="http://creativecommons.org/licenses/by-sa/4.0/">
        <cc:permits
           rdf:resource="http://creativecommons.org/ns#Reproduction" />
        <cc:permits
           rdf:resource="http://creativecommons.org/ns#Distribution" />
        <cc:requires
           rdf:resource="http://creativecommons.org/ns#Notice" />
        <cc:requires
           rdf:resource="http://creativecommons.org/ns#Attribution" />
        <cc:permits
           rdf:resource="http://creativecommons.org/ns#DerivativeWorks" />
        <cc:requires
           rdf:resource="http://creativecommons.org/ns#ShareAlike" />
      </cc:License>
    </rdf:RDF>
  </metadata>
  <g
     style="display:inline"
     inkscape:groupmode="layer"
     inkscape:label="Icon"
     id="layer1">
    <g
       style="display:none"
       inkscape:label="Baseplate"
       id="layer7"
       inkscape:groupmode="layer">
      <text
         y="-8.2548828"
         xml:space="preserve"
         x="19.006836"
         style="font-style:normal;font-variant:normal;font-weight:normal;font-stretch:normal;line-height:0%;font-family:'DejaVu Sans';-inkscape-font-specification:'DejaVu Sans';display:inline;fill:#000000;fill-opacity:1;stroke:none;enable-background:new"
         inkscape:label="context"
         id="context"><tspan
           style="font-style:normal;font-variant:normal;font-weight:normal;font-stretch:normal;font-size:18px;line-height:1.25;font-family:'DejaVu Sans';-inkscape-font-specification:'DejaVu Sans'"
           y="-8.2548828"
           x="19.006836"
           sodipodi:role="line"
           id="tspan3933">apps</tspan></text>
      <text
         y="-8.2548828"
         xml:space="preserve"
         x="146.48828"
         style="font-style:normal;font-variant:normal;font-weight:bold;font-stretch:normal;line-height:0%;font-family:'DejaVu Sans';-inkscape-font-specification:'DejaVu Sans Bold';text-align:start;writing-mode:lr-tb;text-anchor:start;display:inline;fill:#000000;fill-opacity:1;stroke:none;enable-background:new"
         inkscape:label="icon-name"
         id="icon-name"><tspan
           style="font-style:normal;font-variant:normal;font-weight:bold;font-stretch:normal;font-size:18px;line-height:1.25;font-family:'DejaVu Sans';-inkscape-font-specification:'DejaVu Sans Bold'"
           y="-8.2548828"
           x="146.48828"
           sodipodi:role="line"
           id="tspan3937">software-properties</tspan></text>
      <rect
         style="display:inline;overflow:visible;visibility:visible;fill:#cdcdcd;fill-opacity:1;fill-rule:nonzero;stroke:none;stroke-width:2;marker:none;enable-background:accumulate"
         id="rect16x16"
         width="16"
         height="16"
         x="320"
         y="236"
         inkscape:label="16x16" />
      <rect
         style="display:inline;overflow:visible;visibility:visible;fill:#cdcdcd;fill-opacity:1;fill-rule:nonzero;stroke:none;stroke-width:2;marker:none;enable-background:accumulate"
         id="rect24x24"
         width="24"
         height="24"
         x="320"
         y="188"
         inkscape:label="24x24" />
      <rect
         style="display:inline;overflow:visible;visibility:visible;fill:#cdcdcd;fill-opacity:1;fill-rule:nonzero;stroke:none;stroke-width:2;marker:none;enable-background:accumulate"
         id="rect32x32"
         width="32"
         height="32"
         x="320"
         y="132"
         inkscape:label="32x32" />
      <rect
         inkscape:label="48x48"
         y="60"
         x="320"
         height="48"
         width="48"
         id="rect48x48"
         style="display:inline;overflow:visible;visibility:visible;fill:#cdcdcd;fill-opacity:1;fill-rule:nonzero;stroke:none;stroke-width:2;marker:none;enable-background:accumulate" />
      <rect
         style="display:inline;overflow:visible;visibility:visible;fill:#cdcdcd;fill-opacity:1;fill-rule:nonzero;stroke:none;stroke-width:2;marker:none;enable-background:accumulate"
         id="rect3951"
         width="256"
         height="256"
         x="24"
         y="28"
         inkscape:label="48x48" />
    </g>
    <g
       inkscape:groupmode="layer"
       id="layer8"
       inkscape:label="Backgrounds"
       style="display:inline">
      <circle
         style="display:inline;opacity:0.1;fill:#000000;fill-opacity:1;stroke:none;stroke-width:1;stroke-linecap:round;stroke-linejoin:round;stroke-miterlimit:4;stroke-dasharray:none;stroke-opacity:1;filter:url(#filter48967);enable-background:new"
         id="path11042-4"
         r="112"
         cy="157"
         cx="152" />
      <circle
         style="display:inline;opacity:0.2;fill:#000000;fill-opacity:1;stroke:none;stroke-width:1;stroke-linecap:round;stroke-linejoin:round;stroke-miterlimit:4;stroke-dasharray:none;stroke-opacity:1;filter:url(#filter48952);enable-background:new"
         id="path11042-9"
         r="112"
         cy="157"
         cx="152" />
      <circle
         style="opacity:1;vector-effect:none;fill:#4f01b2;fill-opacity:1;stroke:none;stroke-width:15.9987402;stroke-linecap:butt;stroke-linejoin:round;stroke-miterlimit:4;stroke-dasharray:none;stroke-dashoffset:6.5999999;stroke-opacity:1"
         id="path1070"
         cx="211.09998"
         cy="-53.635864"
         r="88"
         transform="rotate(60)" />
      <path
         style="display:inline;opacity:1;fill:#ffffff;fill-opacity:1;stroke:none;stroke-width:1;stroke-linecap:round;stroke-linejoin:round;stroke-miterlimit:4;stroke-dasharray:none;stroke-opacity:1;enable-background:new"
         id="path11042-5"
         r="112"
         cy="156"
         cx="152"
         d=""
         inkscape:connector-curvature="0" />
      <circle
         style="display:inline;opacity:0.1;fill:#000000;fill-opacity:1;stroke:none;stroke-width:1.95437694;stroke-linecap:round;stroke-linejoin:round;stroke-miterlimit:4;stroke-dasharray:none;stroke-opacity:1;enable-background:new"
         id="path9498-0-0"
         cx="-344"
         cy="-85.000015"
         transform="scale(-1)"
         r="23" />
      <circle
         style="display:inline;opacity:0.1;fill:#000000;fill-opacity:1;stroke:none;stroke-width:1.95437694;stroke-linecap:round;stroke-linejoin:round;stroke-miterlimit:4;stroke-dasharray:none;stroke-opacity:1;enable-background:new"
         id="path9498-0-0-2"
         cx="-336"
         cy="-149"
         transform="scale(-1)"
         r="14.999996" />
      <ellipse
         style="display:inline;opacity:0.1;fill:#000000;fill-opacity:1;stroke:none;stroke-width:1.95437694;stroke-linecap:round;stroke-linejoin:round;stroke-miterlimit:4;stroke-dasharray:none;stroke-opacity:1;enable-background:new"
         id="path9498-0-0-2-3"
         cx="-332"
         cy="-200.52327"
         transform="scale(-1)"
         rx="11.999997"
         ry="11.476745" />
      <ellipse
         style="display:inline;opacity:0.1;fill:#000000;fill-opacity:1;stroke:none;stroke-width:1.95437706;stroke-linecap:round;stroke-linejoin:round;stroke-miterlimit:4;stroke-dasharray:none;stroke-opacity:1;enable-background:new"
         id="path9498-0-0-2-3-3"
         cx="-328"
         cy="-244.5"
         transform="scale(-1)"
         rx="6.9999981"
         ry="6.5" />
      <path
         style="display:inline;opacity:1;fill:#ebebeb;fill-opacity:1;stroke:none;stroke-width:1.86940372;stroke-linecap:round;stroke-linejoin:round;stroke-miterlimit:4;stroke-dasharray:none;stroke-opacity:1;enable-background:new"
         clip-path="none"
         d="M 336 133.5 A 14.5 14.5 0 0 0 334.75195 133.56445 A 14.5 14.5 0 0 0 334.11719 133.64062 A 14.5 14.5 0 0 0 333.2793 133.76758 A 14.5 14.5 0 0 0 332.76172 133.88477 A 14.5 14.5 0 0 0 331.8418 134.12109 A 14.5 14.5 0 0 0 331.44727 134.25391 A 14.5 14.5 0 0 0 330.44141 134.62305 A 14.5 14.5 0 0 0 330.17188 134.74219 A 14.5 14.5 0 0 0 329.10547 135.26172 A 14.5 14.5 0 0 0 328.93945 135.35547 A 14.5 14.5 0 0 0 327.83594 136.03516 A 14.5 14.5 0 0 0 327.73242 136.10938 A 14.5 14.5 0 0 0 321.83203 144.94727 A 14.5 14.5 0 0 0 321.81445 145.01562 A 14.5 14.5 0 0 0 321.61133 146.29688 A 14.5 14.5 0 0 0 321.58789 146.45508 A 14.5 14.5 0 0 0 321.53125 147.37305 A 14.5 14.5 0 0 0 321.5 148 A 14.5 14.5 0 0 0 321.53125 148.62695 A 14.5 14.5 0 0 0 321.58789 149.54492 A 14.5 14.5 0 0 0 321.61133 149.70312 A 14.5 14.5 0 0 0 321.81445 150.98438 A 14.5 14.5 0 0 0 321.83203 151.05273 A 14.5 14.5 0 0 0 327.73242 159.89062 A 14.5 14.5 0 0 0 327.83594 159.96484 A 14.5 14.5 0 0 0 328.93945 160.64453 A 14.5 14.5 0 0 0 329.10547 160.73828 A 14.5 14.5 0 0 0 330.17188 161.25781 A 14.5 14.5 0 0 0 330.44141 161.37695 A 14.5 14.5 0 0 0 331.44727 161.74609 A 14.5 14.5 0 0 0 331.8418 161.87891 A 14.5 14.5 0 0 0 332.76172 162.11523 A 14.5 14.5 0 0 0 333.2793 162.23242 A 14.5 14.5 0 0 0 334.11719 162.35938 A 14.5 14.5 0 0 0 334.75195 162.43555 A 14.5 14.5 0 0 0 336 162.5 A 14.5 14.5 0 0 0 337.24805 162.43555 A 14.5 14.5 0 0 0 337.88281 162.35938 A 14.5 14.5 0 0 0 338.7207 162.23242 A 14.5 14.5 0 0 0 339.23828 162.11523 A 14.5 14.5 0 0 0 340.1582 161.87891 A 14.5 14.5 0 0 0 340.55273 161.74609 A 14.5 14.5 0 0 0 341.55859 161.37695 A 14.5 14.5 0 0 0 341.82812 161.25781 A 14.5 14.5 0 0 0 342.89453 160.73828 A 14.5 14.5 0 0 0 343.06055 160.64453 A 14.5 14.5 0 0 0 344.16406 159.96484 A 14.5 14.5 0 0 0 344.26758 159.89062 A 14.5 14.5 0 0 0 350.16797 151.05273 A 14.5 14.5 0 0 0 350.18359 150.99023 A 14.5 14.5 0 0 0 350.18555 150.98438 A 14.5 14.5 0 0 0 350.38867 149.70312 A 14.5 14.5 0 0 0 350.41211 149.54492 A 14.5 14.5 0 0 0 350.46875 148.62695 A 14.5 14.5 0 0 0 350.5 148 A 14.5 14.5 0 0 0 350.46875 147.37305 A 14.5 14.5 0 0 0 350.41211 146.45508 A 14.5 14.5 0 0 0 350.38867 146.29688 A 14.5 14.5 0 0 0 350.18555 145.01562 A 14.5 14.5 0 0 0 350.18359 145.00977 A 14.5 14.5 0 0 0 350.16797 144.94727 A 14.5 14.5 0 0 0 344.26758 136.10938 A 14.5 14.5 0 0 0 344.16406 136.03516 A 14.5 14.5 0 0 0 343.06055 135.35547 A 14.5 14.5 0 0 0 342.89453 135.26172 A 14.5 14.5 0 0 0 341.82812 134.74219 A 14.5 14.5 0 0 0 341.55859 134.62305 A 14.5 14.5 0 0 0 340.55273 134.25391 A 14.5 14.5 0 0 0 340.1582 134.12109 A 14.5 14.5 0 0 0 339.23828 133.88477 A 14.5 14.5 0 0 0 338.7207 133.76758 A 14.5 14.5 0 0 0 337.88281 133.64062 A 14.5 14.5 0 0 0 337.24805 133.56445 A 14.5 14.5 0 0 0 336 133.5 z M 336 137 A 11 11 0 0 1 336.51562 137.02539 A 11 11 0 0 1 337.19336 137.06836 A 11 11 0 0 1 337.32422 137.08984 A 11 11 0 0 1 338.29688 137.24805 A 11 11 0 0 1 339.35938 137.5332 A 11 11 0 0 1 342.30078 139 L 342.31445 139 A 11 11 0 0 1 344.50195 141.03125 A 11 11 0 0 1 344.91992 141.58594 A 11 11 0 0 1 345.125 141.87305 A 11 11 0 0 1 345.50195 142.48633 A 11 11 0 0 1 345.70508 142.83789 A 11 11 0 0 1 345.99609 143.44336 A 11 11 0 0 1 346.17188 143.83594 A 11 11 0 0 1 346.4082 144.48047 A 11 11 0 0 1 346.53516 144.86133 A 11 11 0 0 1 346.70117 145.50781 A 11 11 0 0 1 346.80078 145.95508 A 11 11 0 0 1 346.89258 146.57031 A 11 11 0 0 1 346.95117 147.04102 A 11 11 0 0 1 347 148 A 11 11 0 0 1 346.95117 148.95898 A 11 11 0 0 1 346.89258 149.42969 A 11 11 0 0 1 346.80078 150.04492 A 11 11 0 0 1 346.70117 150.49219 A 11 11 0 0 1 346.53516 151.13867 A 11 11 0 0 1 346.4082 151.51953 A 11 11 0 0 1 346.17188 152.16406 A 11 11 0 0 1 345.99609 152.55664 A 11 11 0 0 1 345.70508 153.16211 A 11 11 0 0 1 345.50195 153.51367 A 11 11 0 0 1 345.125 154.12695 A 11 11 0 0 1 344.91992 154.41406 A 11 11 0 0 1 344.50195 154.96875 A 11 11 0 0 1 342.31445 157 L 342.30078 157 A 11 11 0 0 1 339.35938 158.4668 A 11 11 0 0 1 338.29688 158.75195 A 11 11 0 0 1 337.32422 158.91016 A 11 11 0 0 1 337.19336 158.93164 A 11 11 0 0 1 336.51562 158.97461 A 11 11 0 0 1 336 159 A 11 11 0 0 1 335.48438 158.97461 A 11 11 0 0 1 334.80664 158.93164 A 11 11 0 0 1 334.67578 158.91016 A 11 11 0 0 1 333.70312 158.75195 A 11 11 0 0 1 332.64062 158.4668 A 11 11 0 0 1 329.69922 157 L 329.68555 157 A 11 11 0 0 1 327.49805 154.96875 A 11 11 0 0 1 327.08008 154.41406 A 11 11 0 0 1 326.875 154.12695 A 11 11 0 0 1 326.49805 153.51367 A 11 11 0 0 1 326.29492 153.16211 A 11 11 0 0 1 326.00391 152.55664 A 11 11 0 0 1 325.82812 152.16406 A 11 11 0 0 1 325.5918 151.51953 A 11 11 0 0 1 325.46484 151.13867 A 11 11 0 0 1 325.29883 150.49219 A 11 11 0 0 1 325.19922 150.04492 A 11 11 0 0 1 325.10742 149.42969 A 11 11 0 0 1 325.04883 148.95898 A 11 11 0 0 1 325 148 A 11 11 0 0 1 325.04883 147.04102 A 11 11 0 0 1 325.10742 146.57031 A 11 11 0 0 1 325.19922 145.95508 A 11 11 0 0 1 325.29883 145.50781 A 11 11 0 0 1 325.46484 144.86133 A 11 11 0 0 1 325.5918 144.48047 A 11 11 0 0 1 325.82812 143.83594 A 11 11 0 0 1 326.00391 143.44336 A 11 11 0 0 1 326.29492 142.83789 A 11 11 0 0 1 326.49805 142.48633 A 11 11 0 0 1 326.875 141.87305 A 11 11 0 0 1 327.08008 141.58594 A 11 11 0 0 1 327.49805 141.03125 A 11 11 0 0 1 329.68555 139 L 329.69922 139 A 11 11 0 0 1 332.64062 137.5332 A 11 11 0 0 1 333.70312 137.24805 A 11 11 0 0 1 334.67578 137.08984 A 11 11 0 0 1 334.80664 137.06836 A 11 11 0 0 1 335.48438 137.02539 A 11 11 0 0 1 336 137 z "
         id="path9498-6-5-2" />
      <path
         style="display:inline;opacity:1;vector-effect:none;fill:#ebebeb;fill-opacity:1;stroke:none;stroke-width:1;stroke-linecap:butt;stroke-linejoin:round;stroke-miterlimit:4;stroke-dasharray:none;stroke-dashoffset:6.5999999;stroke-opacity:1;enable-background:new"
         clip-path="none"
         d="M 332 188.5 A 11.5 11.5 0 0 0 330.98828 188.55273 A 11.5 11.5 0 0 0 330.55469 188.60547 A 11.5 11.5 0 0 0 329.81836 188.71875 A 11.5 11.5 0 0 0 329.49609 188.79102 A 11.5 11.5 0 0 0 328.66406 189.00586 A 11.5 11.5 0 0 0 328.48047 189.06641 A 11.5 11.5 0 0 0 327.54492 189.41016 A 11.5 11.5 0 0 0 327.47461 189.44141 A 11.5 11.5 0 0 0 326.49023 189.91992 A 11.5 11.5 0 0 0 320.5 200 A 11.5 11.5 0 0 0 326.49023 210.08008 A 11.5 11.5 0 0 0 327.47461 210.55859 A 11.5 11.5 0 0 0 327.54492 210.58984 A 11.5 11.5 0 0 0 328.48047 210.93359 A 11.5 11.5 0 0 0 328.66406 210.99414 A 11.5 11.5 0 0 0 329.49609 211.20898 A 11.5 11.5 0 0 0 329.81836 211.28125 A 11.5 11.5 0 0 0 330.55469 211.39453 A 11.5 11.5 0 0 0 330.98828 211.44727 A 11.5 11.5 0 0 0 332 211.5 A 11.5 11.5 0 0 0 333.01172 211.44727 A 11.5 11.5 0 0 0 333.44531 211.39453 A 11.5 11.5 0 0 0 334.18164 211.28125 A 11.5 11.5 0 0 0 334.50391 211.20898 A 11.5 11.5 0 0 0 335.33594 210.99414 A 11.5 11.5 0 0 0 335.51953 210.93359 A 11.5 11.5 0 0 0 336.45508 210.58984 A 11.5 11.5 0 0 0 336.52539 210.55859 A 11.5 11.5 0 0 0 337.50977 210.08008 A 11.5 11.5 0 0 0 343.5 200 A 11.5 11.5 0 0 0 337.50977 189.91992 A 11.5 11.5 0 0 0 336.52539 189.44141 A 11.5 11.5 0 0 0 336.45508 189.41016 A 11.5 11.5 0 0 0 335.51953 189.06641 A 11.5 11.5 0 0 0 335.33594 189.00586 A 11.5 11.5 0 0 0 334.50391 188.79102 A 11.5 11.5 0 0 0 334.18164 188.71875 A 11.5 11.5 0 0 0 333.44531 188.60547 A 11.5 11.5 0 0 0 333.01172 188.55273 A 11.5 11.5 0 0 0 332 188.5 z M 332 191 A 9 9 0 0 1 332.78906 191.03906 A 9 9 0 0 1 333.24219 191.09766 A 9 9 0 0 1 333.67578 191.16211 A 9 9 0 0 1 334.12695 191.26562 A 9 9 0 0 1 334.54492 191.37305 A 9 9 0 0 1 335.01562 191.53125 A 9 9 0 0 1 335.38867 191.66797 A 9 9 0 0 1 335.85742 191.88086 A 9 9 0 0 1 338.69531 194 A 9 9 0 0 1 338.88086 194.21289 A 9 9 0 0 1 339.38086 194.86914 A 9 9 0 0 1 339.43555 194.94336 A 9 9 0 0 1 339.86328 195.64453 A 9 9 0 0 1 339.90039 195.70508 A 9 9 0 0 1 340.24609 196.41797 A 9 9 0 0 1 340.29688 196.5332 A 9 9 0 0 1 340.54297 197.20508 A 9 9 0 0 1 340.61133 197.40625 A 9 9 0 0 1 340.76367 198 A 9 9 0 0 1 340.83398 198.31055 A 9 9 0 0 1 340.91406 198.84375 A 9 9 0 0 1 340.95898 199.2207 A 9 9 0 0 1 341 200 A 9 9 0 0 1 340.95898 200.7793 A 9 9 0 0 1 340.91406 201.15625 A 9 9 0 0 1 340.83398 201.68945 A 9 9 0 0 1 340.76367 202 A 9 9 0 0 1 340.61133 202.59375 A 9 9 0 0 1 340.54297 202.79492 A 9 9 0 0 1 340.29688 203.4668 A 9 9 0 0 1 340.24609 203.58203 A 9 9 0 0 1 339.90039 204.29492 A 9 9 0 0 1 339.86328 204.35547 A 9 9 0 0 1 339.43555 205.05664 A 9 9 0 0 1 339.38086 205.13086 A 9 9 0 0 1 338.88086 205.78711 A 9 9 0 0 1 338.69531 206 A 9 9 0 0 1 335.85742 208.11914 A 9 9 0 0 1 335.38867 208.33203 A 9 9 0 0 1 335.01562 208.46875 A 9 9 0 0 1 334.54492 208.62695 A 9 9 0 0 1 334.12695 208.73438 A 9 9 0 0 1 333.67578 208.83789 A 9 9 0 0 1 333.24219 208.90234 A 9 9 0 0 1 332.78906 208.96094 A 9 9 0 0 1 332 209 A 9 9 0 0 1 331.21094 208.96094 A 9 9 0 0 1 330.75781 208.90234 A 9 9 0 0 1 330.32422 208.83789 A 9 9 0 0 1 329.87305 208.73438 A 9 9 0 0 1 329.45508 208.62695 A 9 9 0 0 1 328.98438 208.46875 A 9 9 0 0 1 328.61133 208.33203 A 9 9 0 0 1 328.14258 208.11914 A 9 9 0 0 1 325.30469 206 A 9 9 0 0 1 325.11914 205.78711 A 9 9 0 0 1 324.61914 205.13086 A 9 9 0 0 1 324.56445 205.05664 A 9 9 0 0 1 324.13672 204.35547 A 9 9 0 0 1 324.09961 204.29492 A 9 9 0 0 1 323.75391 203.58203 A 9 9 0 0 1 323.70312 203.4668 A 9 9 0 0 1 323.45703 202.79492 A 9 9 0 0 1 323.38867 202.59375 A 9 9 0 0 1 323.23633 202 A 9 9 0 0 1 323.16602 201.68945 A 9 9 0 0 1 323.08594 201.15625 A 9 9 0 0 1 323.04102 200.7793 A 9 9 0 0 1 323 200 A 9 9 0 0 1 323.04102 199.2207 A 9 9 0 0 1 323.08594 198.84375 A 9 9 0 0 1 323.16602 198.31055 A 9 9 0 0 1 323.23633 198 A 9 9 0 0 1 323.38867 197.40625 A 9 9 0 0 1 323.45703 197.20508 A 9 9 0 0 1 323.70312 196.5332 A 9 9 0 0 1 323.75391 196.41797 A 9 9 0 0 1 324.09961 195.70508 A 9 9 0 0 1 324.13672 195.64453 A 9 9 0 0 1 324.56445 194.94336 A 9 9 0 0 1 324.61914 194.86914 A 9 9 0 0 1 325.11914 194.21289 A 9 9 0 0 1 325.30469 194 A 9 9 0 0 1 328.14258 191.88086 A 9 9 0 0 1 328.61133 191.66797 A 9 9 0 0 1 328.98438 191.53125 A 9 9 0 0 1 329.45508 191.37305 A 9 9 0 0 1 329.87305 191.26562 A 9 9 0 0 1 330.32422 191.16211 A 9 9 0 0 1 330.75781 191.09766 A 9 9 0 0 1 331.21094 191.03906 A 9 9 0 0 1 332 191 z "
         id="path1020-9" />
      <path
         style="display:inline;opacity:1;fill:#ebebeb;fill-opacity:1;stroke:none;stroke-width:1.86940384;stroke-linecap:round;stroke-linejoin:round;stroke-miterlimit:4;stroke-dasharray:none;stroke-opacity:1;enable-background:new"
         clip-path="none"
         d="M 328 236.5 C 327.67043 236.5 327.34764 236.52909 327.0293 236.57031 C 326.94653 236.58118 326.86508 236.59385 326.7832 236.60742 C 326.49549 236.65446 326.21322 236.71613 325.9375 236.79492 C 325.91374 236.80179 325.8889 236.8054 325.86523 236.8125 C 325.53478 236.9105 325.21594 237.03323 324.90625 237.17383 C 324.59151 237.31672 324.2897 237.48076 324 237.66406 C 323.64502 237.88867 323.31135 238.14263 323 238.42188 C 322.80896 238.59321 322.62766 238.773 322.45508 238.96289 C 322.45384 238.96425 322.45241 238.96544 322.45117 238.9668 C 322.2869 239.14781 322.13249 239.33673 321.98633 239.5332 C 321.97352 239.55035 321.95993 239.56673 321.94727 239.58398 C 321.80807 239.77446 321.67772 239.97228 321.55664 240.17578 C 321.54718 240.19162 321.53669 240.20675 321.52734 240.22266 C 321.41389 240.41658 321.31088 240.61579 321.21484 240.82031 C 321.19693 240.85824 321.17745 240.89532 321.16016 240.93359 C 321.0811 241.10964 321.01087 241.28972 320.94531 241.47266 C 320.92082 241.54054 320.89366 241.607 320.87109 241.67578 C 320.81428 241.85016 320.76873 242.02925 320.72461 242.20898 C 320.70712 242.27979 320.68538 242.34833 320.66992 242.41992 C 320.62879 242.61162 320.60039 242.80708 320.57422 243.00391 C 320.56536 243.07006 320.55008 243.13448 320.54297 243.20117 C 320.51521 243.46352 320.5 243.73029 320.5 244 C 320.5 244.26971 320.51521 244.53648 320.54297 244.79883 C 320.55008 244.86552 320.56536 244.92994 320.57422 244.99609 C 320.60039 245.19292 320.62879 245.38838 320.66992 245.58008 C 320.68538 245.65167 320.70712 245.72021 320.72461 245.79102 C 320.76873 245.97075 320.81428 246.14984 320.87109 246.32422 C 320.89366 246.393 320.92082 246.45946 320.94531 246.52734 C 321.01087 246.71028 321.0811 246.89036 321.16016 247.06641 C 321.17745 247.10468 321.19693 247.14176 321.21484 247.17969 C 321.31088 247.38421 321.41389 247.58342 321.52734 247.77734 C 321.53669 247.79325 321.54718 247.80838 321.55664 247.82422 C 321.67772 248.02772 321.80807 248.22554 321.94727 248.41602 C 321.95993 248.43327 321.97352 248.44965 321.98633 248.4668 C 322.13249 248.66327 322.2869 248.85219 322.45117 249.0332 C 322.45241 249.03456 322.45384 249.03575 322.45508 249.03711 C 322.62766 249.227 322.80896 249.40679 323 249.57812 C 323.31135 249.85737 323.64502 250.11133 324 250.33594 C 324.2897 250.51924 324.59151 250.68328 324.90625 250.82617 C 325.21594 250.96677 325.53478 251.0895 325.86523 251.1875 C 325.8889 251.1946 325.91374 251.19821 325.9375 251.20508 C 326.21322 251.28387 326.49549 251.34554 326.7832 251.39258 C 326.86508 251.40615 326.94653 251.41882 327.0293 251.42969 C 327.34764 251.47091 327.67043 251.5 328 251.5 C 328.32957 251.5 328.65236 251.47091 328.9707 251.42969 C 329.05347 251.41882 329.13492 251.40615 329.2168 251.39258 C 329.50451 251.34554 329.78678 251.28387 330.0625 251.20508 C 330.08626 251.19821 330.1111 251.1946 330.13477 251.1875 C 330.46522 251.0895 330.78406 250.96677 331.09375 250.82617 C 331.40849 250.68328 331.7103 250.51924 332 250.33594 C 332.35498 250.11133 332.68865 249.85737 333 249.57812 C 333.19104 249.40679 333.37234 249.227 333.54492 249.03711 C 333.54554 249.03643 333.54626 249.03584 333.54688 249.03516 C 333.54749 249.03448 333.54821 249.03388 333.54883 249.0332 C 333.7131 248.85219 333.86751 248.66327 334.01367 248.4668 C 334.02648 248.44965 334.04007 248.43327 334.05273 248.41602 C 334.19193 248.22554 334.32228 248.02772 334.44336 247.82422 C 334.44935 247.81415 334.45695 247.80502 334.46289 247.79492 C 334.46629 247.78918 334.46927 247.7831 334.47266 247.77734 C 334.58611 247.58342 334.68912 247.38421 334.78516 247.17969 C 334.80307 247.14176 334.82255 247.10468 334.83984 247.06641 C 334.9189 246.89036 334.98913 246.71028 335.05469 246.52734 C 335.07918 246.45946 335.10634 246.393 335.12891 246.32422 C 335.18572 246.14984 335.23127 245.97075 335.27539 245.79102 C 335.29288 245.72021 335.31462 245.65167 335.33008 245.58008 C 335.37121 245.38838 335.39961 245.19292 335.42578 244.99609 C 335.43464 244.92994 335.44992 244.86552 335.45703 244.79883 C 335.48479 244.53648 335.5 244.26971 335.5 244 C 335.5 243.73029 335.48479 243.46352 335.45703 243.20117 C 335.44992 243.13448 335.43464 243.07006 335.42578 243.00391 C 335.39961 242.80708 335.37121 242.61162 335.33008 242.41992 C 335.31462 242.34833 335.29288 242.27979 335.27539 242.20898 C 335.23127 242.02925 335.18572 241.85016 335.12891 241.67578 C 335.10634 241.607 335.07918 241.54054 335.05469 241.47266 C 334.98913 241.28972 334.9189 241.10964 334.83984 240.93359 C 334.82255 240.89532 334.80307 240.85824 334.78516 240.82031 C 334.68912 240.61579 334.58611 240.41658 334.47266 240.22266 C 334.46928 240.21688 334.46629 240.21085 334.46289 240.20508 C 334.4569 240.19494 334.4494 240.18589 334.44336 240.17578 C 334.32228 239.97228 334.19193 239.77446 334.05273 239.58398 C 334.04007 239.56673 334.02648 239.55035 334.01367 239.5332 C 333.86751 239.33673 333.7131 239.14781 333.54883 238.9668 C 333.54821 238.96611 333.54749 238.96553 333.54688 238.96484 C 333.54625 238.96416 333.54554 238.96357 333.54492 238.96289 C 333.37234 238.773 333.19104 238.59321 333 238.42188 C 332.68865 238.14263 332.35498 237.88867 332 237.66406 C 331.7103 237.48076 331.40849 237.31672 331.09375 237.17383 C 330.78406 237.03323 330.46522 236.9105 330.13477 236.8125 C 330.1111 236.8054 330.08626 236.80179 330.0625 236.79492 C 329.78678 236.71613 329.50451 236.65446 329.2168 236.60742 C 329.13492 236.59385 329.05347 236.58118 328.9707 236.57031 C 328.65236 236.52909 328.32957 236.5 328 236.5 z M 328 238.5 A 5.5 5.5 0 0 1 328.3125 238.51562 A 5.5 5.5 0 0 1 328.6582 238.54297 A 5.5 5.5 0 0 1 328.7832 238.5625 A 5.5 5.5 0 0 1 329.21094 238.64062 A 5.5 5.5 0 0 1 329.29688 238.66211 A 5.5 5.5 0 0 1 329.76367 238.79688 A 5.5 5.5 0 0 1 329.76562 238.79688 A 5.5 5.5 0 0 1 329.76953 238.79883 A 5.5 5.5 0 0 1 330.27539 239 L 330.2793 239 A 5.5 5.5 0 0 1 331.84375 240.07227 A 5.5 5.5 0 0 1 332.13672 240.38672 A 5.5 5.5 0 0 1 332.23047 240.49414 A 5.5 5.5 0 0 1 332.46094 240.79492 A 5.5 5.5 0 0 1 332.56445 240.93945 A 5.5 5.5 0 0 1 332.76562 241.26758 A 5.5 5.5 0 0 1 332.84375 241.4043 A 5.5 5.5 0 0 1 333.01367 241.75195 A 5.5 5.5 0 0 1 333.08203 241.90625 A 5.5 5.5 0 0 1 333.20898 242.25781 A 5.5 5.5 0 0 1 333.26562 242.42969 A 5.5 5.5 0 0 1 333.35352 242.77148 A 5.5 5.5 0 0 1 333.39844 242.96484 A 5.5 5.5 0 0 1 333.44531 243.27734 A 5.5 5.5 0 0 1 333.47656 243.53125 A 5.5 5.5 0 0 1 333.5 244 A 5.5 5.5 0 0 1 333.47656 244.46875 A 5.5 5.5 0 0 1 333.44531 244.72266 A 5.5 5.5 0 0 1 333.39844 245.03516 A 5.5 5.5 0 0 1 333.35352 245.22852 A 5.5 5.5 0 0 1 333.26562 245.57031 A 5.5 5.5 0 0 1 333.20898 245.74219 A 5.5 5.5 0 0 1 333.08203 246.09375 A 5.5 5.5 0 0 1 333.01367 246.24805 A 5.5 5.5 0 0 1 332.84375 246.5957 A 5.5 5.5 0 0 1 332.76562 246.73242 A 5.5 5.5 0 0 1 332.56445 247.06055 A 5.5 5.5 0 0 1 332.46094 247.20508 A 5.5 5.5 0 0 1 332.23047 247.50586 A 5.5 5.5 0 0 1 332.13672 247.61328 A 5.5 5.5 0 0 1 331.84375 247.92773 A 5.5 5.5 0 0 1 330.2793 249 L 330.27539 249 A 5.5 5.5 0 0 1 329.76953 249.20117 A 5.5 5.5 0 0 1 329.76562 249.20312 A 5.5 5.5 0 0 1 329.76367 249.20312 A 5.5 5.5 0 0 1 329.29688 249.33789 A 5.5 5.5 0 0 1 329.21094 249.35938 A 5.5 5.5 0 0 1 328.7832 249.4375 A 5.5 5.5 0 0 1 328.6582 249.45703 A 5.5 5.5 0 0 1 328.3125 249.48438 A 5.5 5.5 0 0 1 328 249.5 A 5.5 5.5 0 0 1 327.6875 249.48438 A 5.5 5.5 0 0 1 327.3418 249.45703 A 5.5 5.5 0 0 1 327.2168 249.4375 A 5.5 5.5 0 0 1 326.78906 249.35938 A 5.5 5.5 0 0 1 326.70312 249.33789 A 5.5 5.5 0 0 1 326.23633 249.20312 A 5.5 5.5 0 0 1 326.23438 249.20312 A 5.5 5.5 0 0 1 326.23047 249.20117 A 5.5 5.5 0 0 1 325.72461 249 L 325.7207 249 A 5.5 5.5 0 0 1 324.15625 247.92773 A 5.5 5.5 0 0 1 323.86328 247.61328 A 5.5 5.5 0 0 1 323.76953 247.50586 A 5.5 5.5 0 0 1 323.53906 247.20508 A 5.5 5.5 0 0 1 323.43555 247.06055 A 5.5 5.5 0 0 1 323.23438 246.73242 A 5.5 5.5 0 0 1 323.15625 246.5957 A 5.5 5.5 0 0 1 322.98633 246.24805 A 5.5 5.5 0 0 1 322.91797 246.09375 A 5.5 5.5 0 0 1 322.79102 245.74219 A 5.5 5.5 0 0 1 322.73438 245.57031 A 5.5 5.5 0 0 1 322.64648 245.22852 A 5.5 5.5 0 0 1 322.60156 245.03516 A 5.5 5.5 0 0 1 322.55469 244.72266 A 5.5 5.5 0 0 1 322.52344 244.46875 A 5.5 5.5 0 0 1 322.5 244 A 5.5 5.5 0 0 1 322.52344 243.53125 A 5.5 5.5 0 0 1 322.55469 243.27734 A 5.5 5.5 0 0 1 322.60156 242.96484 A 5.5 5.5 0 0 1 322.64648 242.77148 A 5.5 5.5 0 0 1 322.73438 242.42969 A 5.5 5.5 0 0 1 322.79102 242.25781 A 5.5 5.5 0 0 1 322.91797 241.90625 A 5.5 5.5 0 0 1 322.98633 241.75195 A 5.5 5.5 0 0 1 323.15625 241.4043 A 5.5 5.5 0 0 1 323.23438 241.26758 A 5.5 5.5 0 0 1 323.43555 240.93945 A 5.5 5.5 0 0 1 323.53906 240.79492 A 5.5 5.5 0 0 1 323.76953 240.49414 A 5.5 5.5 0 0 1 323.86328 240.38672 A 5.5 5.5 0 0 1 324.15625 240.07227 A 5.5 5.5 0 0 1 325.7207 239 L 325.72461 239 A 5.5 5.5 0 0 1 326.23047 238.79883 A 5.5 5.5 0 0 1 326.23438 238.79688 A 5.5 5.5 0 0 1 326.23633 238.79688 A 5.5 5.5 0 0 1 326.70312 238.66211 A 5.5 5.5 0 0 1 326.78906 238.64062 A 5.5 5.5 0 0 1 327.2168 238.5625 A 5.5 5.5 0 0 1 327.3418 238.54297 A 5.5 5.5 0 0 1 327.6875 238.51562 A 5.5 5.5 0 0 1 328 238.5 z "
         id="path9498-6-5-6-8-1" />
      <path
         style="color:#000000;display:inline;overflow:visible;visibility:visible;opacity:0.05;fill:none;fill-opacity:1;fill-rule:nonzero;stroke:url(#linearGradient982);stroke-width:10;stroke-linecap:butt;stroke-linejoin:round;stroke-miterlimit:4;stroke-dasharray:none;stroke-dashoffset:0;stroke-opacity:1;marker:none;filter:url(#filter1003);enable-background:accumulate"
         d="m 152,69.99999 c -48.60106,0 -88,39.39894 -88,88 0,48.60106 39.39894,88 88,88 48.60106,0 88,-39.39894 88,-88 0,-48.60106 -39.39894,-88 -88,-88 z"
         id="path962"
         clip-path="none"
         inkscape:connector-curvature="0"
         sodipodi:nodetypes="sssss" />
      <path
         style="display:inline;opacity:1;fill:#ebebeb;fill-opacity:1;stroke:none;stroke-width:1;stroke-linecap:round;stroke-linejoin:round;stroke-miterlimit:4;stroke-dasharray:none;stroke-opacity:1;enable-background:new"
         clip-path="none"
         d="M 152 44 C 90.995676 44 41.387673 92.774015 40.033203 153.45312 C 40.014296 154.30015 40 155.14843 40 156 C 40.00161 156.85021 40.012311 157.69867 40.033203 158.54688 C 41.387673 219.22598 90.995676 268 152 268 C 213.00432 268 262.61233 219.22598 263.9668 158.54688 C 263.98769 157.69867 263.99839 156.85021 264 156 C 263.99839 155.14979 263.98769 154.30133 263.9668 153.45312 C 262.61233 92.774015 213.00432 44 152 44 z M 152 68 C 153.12795 68.002366 154.25504 68.026742 155.37891 68.072266 C 172.23686 68.755122 188.56913 74.272069 202.41211 84 L 202.60156 84 C 209.05374 88.542961 214.86973 93.927451 219.88477 100 L 219.83203 100 C 232.02192 114.74941 239.04736 133.04119 239.9082 152.08594 C 239.91182 152.16848 239.91458 152.25138 239.91797 152.33398 C 239.96964 153.55344 239.99916 154.7752 240 156 C 239.99916 157.2248 239.96964 158.44656 239.91797 159.66602 C 239.91458 159.74862 239.91182 159.83152 239.9082 159.91406 C 239.04736 178.95881 232.02192 197.25059 219.83203 212 L 219.88477 212 C 214.86973 218.07255 209.05374 223.45704 202.60156 228 L 202.41211 228 C 188.56913 237.72793 172.23686 243.24488 155.37891 243.92773 C 154.25504 243.97326 153.12795 243.99763 152 244 C 150.87205 243.99763 149.74496 243.97326 148.62109 243.92773 C 131.76314 243.24488 115.43087 237.72793 101.58789 228 L 101.39844 228 C 94.946262 223.45704 89.130271 218.07255 84.115234 212 L 84.167969 212 C 71.978079 197.25059 64.952644 178.95881 64.091797 159.91406 C 64.088183 159.83152 64.085417 159.74862 64.082031 159.66602 C 64.030356 158.44656 64.000845 157.2248 64 156 C 64.000845 154.7752 64.030356 153.55344 64.082031 152.33398 C 64.085417 152.25138 64.088183 152.16848 64.091797 152.08594 C 64.952644 133.04119 71.978079 114.74941 84.167969 100 L 84.115234 100 C 89.130271 93.927451 94.946262 88.542961 101.39844 84 L 101.58789 84 C 115.43087 74.272069 131.76314 68.755122 148.62109 68.072266 C 149.74496 68.026742 150.87205 68.002366 152 68 z "
         id="path11042-9-8" />
      <path
         style="display:inline;opacity:0.3;fill:#ffffff;fill-opacity:1;stroke:none;stroke-width:1;stroke-linecap:round;stroke-linejoin:round;stroke-miterlimit:4;stroke-dasharray:none;stroke-opacity:1;enable-background:new"
         d="M 152,44 A 112,112 0 0 0 40,156 112,112 0 0 0 40.04102,157.16992 112,112 0 0 1 152,46 112,112 0 0 1 263.95898,156.83008 112,112 0 0 0 263.99998,156 a 112,112 0 0 0 -112,-112 z"
         id="path11042-1-6"
         inkscape:connector-curvature="0"
         clip-path="none" />
      <path
         inkscape:connector-curvature="0"
         style="display:inline;opacity:0.2;fill:#000000;fill-opacity:1;stroke:none;stroke-width:1;stroke-linecap:round;stroke-linejoin:round;stroke-miterlimit:4;stroke-dasharray:none;stroke-opacity:1;enable-background:new"
         d="M 152,268 A 112,112 0 0 1 40,156 112,112 0 0 1 40.04102,154.83008 112,112 0 0 0 152,266 112,112 0 0 0 263.95898,155.16992 a 112,112 0 0 1 0.041,0.83008 112,112 0 0 1 -112,112 z"
         id="path11042-1-7-2"
         clip-path="none" />
      <path
         style="display:inline;opacity:1;vector-effect:none;fill:#ebebeb;fill-opacity:1;stroke:none;stroke-width:1;stroke-linecap:butt;stroke-linejoin:round;stroke-miterlimit:4;stroke-dasharray:none;stroke-dashoffset:6.5999999;stroke-opacity:1;enable-background:new"
         clip-path="none"
         d="m 344,61.5 a 22.5,22.5 0 0 0 -2.73047,0.195312 22.5,22.5 0 0 0 -0.18555,0.02148 22.5,22.5 0 0 0 -0.0273,0.0039 22.5,22.5 0 0 0 -0.18164,0.02734 22.5,22.5 0 0 0 -1.71875,0.308594 22.5,22.5 0 0 0 -0.1582,0.03516 22.5,22.5 0 0 0 -0.0117,0.002 22.5,22.5 0 0 0 -0.21875,0.05664 22.5,22.5 0 0 0 -1.65235,0.457031 22.5,22.5 0 0 0 -0.16992,0.05664 22.5,22.5 0 0 0 -0.01,0.0039 22.5,22.5 0 0 0 -0.15625,0.05664 22.5,22.5 0 0 0 -1.66211,0.63086 22.5,22.5 0 0 0 -0.1875,0.08398 22.5,22.5 0 0 0 -0.01,0.0039 22.5,22.5 0 0 0 -0.21875,0.105469 22.5,22.5 0 0 0 -1.39844,0.679688 22.5,22.5 0 0 0 -0.0742,0.04297 22.5,22.5 0 0 0 -0.19141,0.109375 22.5,22.5 0 0 0 -0.0254,0.01563 22.5,22.5 0 0 0 -0.20313,0.125 22.5,22.5 0 0 0 -1.45117,0.892578 22.5,22.5 0 0 0 -0.002,0.002 22.5,22.5 0 0 0 -0.25781,0.183593 22.5,22.5 0 0 0 -0.004,0.0039 22.5,22.5 0 0 0 -0.008,0.0039 A 22.5,22.5 0 0 0 330,66.414062 v 0.0059 a 22.5,22.5 0 0 0 -0.24414,0.179687 22.5,22.5 0 0 0 -0.46094,0.40625 22.5,22.5 0 0 0 -0.33594,0.292969 22.5,22.5 0 0 0 -0.0273,0.02539 22.5,22.5 0 0 0 -0.83789,0.78125 22.5,22.5 0 0 0 -0.74414,0.798828 22.5,22.5 0 0 0 -0.0254,0.02734 22.5,22.5 0 0 0 -0.32422,0.371093 22.5,22.5 0 0 0 -0.4082,0.464844 22.5,22.5 0 0 0 -0.67774,0.892578 22.5,22.5 0 0 0 -0.66601,0.929688 22.5,22.5 0 0 0 -0.56055,0.914062 22.5,22.5 0 0 0 -0.0117,0.01953 22.5,22.5 0 0 0 -0.5664,0.990234 22.5,22.5 0 0 0 -0.47852,0.990234 22.5,22.5 0 0 0 -0.4707,1.052735 22.5,22.5 0 0 0 -0.38477,1.052734 22.5,22.5 0 0 1 0,0.002 22.5,22.5 0 0 0 -0.0566,0.171875 22.5,22.5 0 0 0 -0.0918,0.238281 22.5,22.5 0 0 0 -0.004,0.0078 22.5,22.5 0 0 0 -0.0254,0.06836 22.5,22.5 0 0 0 -0.002,0.0078 22.5,22.5 0 0 0 -0.0703,0.255859 22.5,22.5 0 0 0 -0.0977,0.296875 22.5,22.5 0 0 0 -0.27929,1.085938 22.5,22.5 0 0 0 -0.006,0.02539 22.5,22.5 0 0 0 -0.008,0.0332 22.5,22.5 0 0 0 -0.0176,0.06641 22.5,22.5 0 0 0 -0.0156,0.06055 22.5,22.5 0 0 0 -0.0976,0.382812 22.5,22.5 0 0 0 -0.002,0.0078 22.5,22.5 0 0 0 -0.0508,0.302735 22.5,22.5 0 0 0 -0.0508,0.232422 22.5,22.5 0 0 0 -0.16797,1.101562 22.5,22.5 0 0 0 -0.002,0.01758 22.5,22.5 0 0 0 -0.004,0.0293 22.5,22.5 0 0 0 -0.0859,0.572266 22.5,22.5 0 0 0 -0.0195,0.308594 22.5,22.5 0 0 0 -0.0234,0.191406 22.5,22.5 0 0 0 -0.0391,0.77539 A 22.5,22.5 0 0 0 321.5,84 a 22.5,22.5 0 0 0 0.0586,1.148438 22.5,22.5 0 0 0 0.0391,0.77539 22.5,22.5 0 0 0 0.0234,0.191406 22.5,22.5 0 0 0 0.0195,0.308594 22.5,22.5 0 0 0 0.0859,0.572266 22.5,22.5 0 0 0 0.004,0.0293 22.5,22.5 0 0 0 0.002,0.01758 22.5,22.5 0 0 0 0.16797,1.101562 22.5,22.5 0 0 0 0.0508,0.232422 22.5,22.5 0 0 0 0.0508,0.302735 22.5,22.5 0 0 0 0.002,0.0078 22.5,22.5 0 0 0 0.11328,0.443359 22.5,22.5 0 0 0 0.0176,0.06641 22.5,22.5 0 0 0 0.008,0.0332 22.5,22.5 0 0 0 0.006,0.02539 22.5,22.5 0 0 0 0.27929,1.085938 22.5,22.5 0 0 0 0.0977,0.296875 22.5,22.5 0 0 0 0.0703,0.255859 22.5,22.5 0 0 0 0.002,0.0078 22.5,22.5 0 0 0 0.0293,0.07617 22.5,22.5 0 0 0 0.0918,0.238281 22.5,22.5 0 0 0 0.0566,0.171875 22.5,22.5 0 0 0 0,0.002 22.5,22.5 0 0 0 0.38477,1.052734 22.5,22.5 0 0 0 0.4707,1.052735 22.5,22.5 0 0 0 0.47852,0.990234 22.5,22.5 0 0 0 0.5664,0.990234 22.5,22.5 0 0 0 0.0117,0.01953 22.5,22.5 0 0 0 0.56055,0.914062 22.5,22.5 0 0 0 0.006,0.0098 22.5,22.5 0 0 0 0.66015,0.919922 22.5,22.5 0 0 0 0.67774,0.892578 22.5,22.5 0 0 0 0.004,0.0059 22.5,22.5 0 0 0 0.4043,0.458985 22.5,22.5 0 0 0 0.32422,0.371093 22.5,22.5 0 0 0 0.0254,0.02734 22.5,22.5 0 0 0 0.74414,0.798828 22.5,22.5 0 0 0 0.006,0.0059 22.5,22.5 0 0 0 0.83203,0.775385 22.5,22.5 0 0 0 0.0273,0.0254 22.5,22.5 0 0 0 0.33594,0.29297 22.5,22.5 0 0 0 0.46094,0.40625 22.5,22.5 0 0 0 0.006,0.004 22.5,22.5 0 0 0 0.23828,0.18164 22.5,22.5 0 0 0 0.0566,0.041 22.5,22.5 0 0 0 0.60352,0.45899 22.5,22.5 0 0 0 0.375,0.26953 22.5,22.5 0 0 0 0.004,0.004 22.5,22.5 0 0 0 0.004,0.002 22.5,22.5 0 0 0 0.008,0.006 22.5,22.5 0 0 0 0.0332,0.0254 22.5,22.5 0 0 0 0.002,0 22.5,22.5 0 0 0 0.01,0.008 22.5,22.5 0 0 0 0.0645,0.0449 22.5,22.5 0 0 0 0.41015,0.29492 22.5,22.5 0 0 0 0.01,0.006 22.5,22.5 0 0 0 0.94336,0.57813 22.5,22.5 0 0 0 0.0195,0.0117 22.5,22.5 0 0 0 0.63476,0.36328 22.5,22.5 0 0 0 0.0586,0.0332 22.5,22.5 0 0 0 0.27734,0.1582 22.5,22.5 0 0 0 0.99024,0.47852 22.5,22.5 0 0 0 0.5625,0.25195 22.5,22.5 0 0 0 0.25781,0.11524 22.5,22.5 0 0 0 0.23242,0.10351 22.5,22.5 0 0 0 1.05469,0.38477 22.5,22.5 0 0 0 0.4082,0.13477 22.5,22.5 0 0 0 0.49219,0.16406 22.5,22.5 0 0 0 0.14648,0.0488 22.5,22.5 0 0 0 1.11133,0.28515 22.5,22.5 0 0 0 0.0254,0.006 22.5,22.5 0 0 0 0.26953,0.0605 22.5,22.5 0 0 0 0.69336,0.15429 22.5,22.5 0 0 0 0.0977,0.0215 22.5,22.5 0 0 0 1.11914,0.16992 22.5,22.5 0 0 0 0.0156,0.002 22.5,22.5 0 0 0 0.15821,0.0195 22.5,22.5 0 0 0 0.88867,0.10742 22.5,22.5 0 0 0 0.0391,0.004 22.5,22.5 0 0 0 1.85156,0.0937 22.5,22.5 0 0 0 0.0723,0.004 22.5,22.5 0 0 0 0.0703,-0.004 22.5,22.5 0 0 0 1.85157,-0.0937 22.5,22.5 0 0 0 0.0391,-0.004 22.5,22.5 0 0 0 0.89062,-0.10742 22.5,22.5 0 0 0 0.15625,-0.0195 22.5,22.5 0 0 0 0.0156,-0.002 22.5,22.5 0 0 0 1.11914,-0.16992 22.5,22.5 0 0 0 0.0937,-0.0215 22.5,22.5 0 0 0 0.71094,-0.1582 22.5,22.5 0 0 0 0.25585,-0.0566 22.5,22.5 0 0 0 0.0254,-0.006 22.5,22.5 0 0 0 1.11132,-0.28515 22.5,22.5 0 0 0 0.13868,-0.0469 22.5,22.5 0 0 0 0.51953,-0.17187 22.5,22.5 0 0 0 0.38867,-0.12891 22.5,22.5 0 0 0 1.05469,-0.38477 22.5,22.5 0 0 0 0.22265,-0.0996 22.5,22.5 0 0 0 0.29102,-0.13085 22.5,22.5 0 0 0 0.53906,-0.24024 22.5,22.5 0 0 0 0.99024,-0.47852 22.5,22.5 0 0 0 0.27734,-0.1582 22.5,22.5 0 0 0 0.0586,-0.0332 22.5,22.5 0 0 0 0.63477,-0.36328 22.5,22.5 0 0 0 0.0195,-0.0117 22.5,22.5 0 0 0 0.94336,-0.57813 22.5,22.5 0 0 0 0.01,-0.006 22.5,22.5 0 0 0 0.26954,-0.19531 22.5,22.5 0 0 0 0.10937,-0.0781 22.5,22.5 0 0 0 0.0957,-0.0664 22.5,22.5 0 0 0 0.0117,-0.008 22.5,22.5 0 0 0 0.082,-0.0605 22.5,22.5 0 0 0 0.3418,-0.24609 22.5,22.5 0 0 0 0.51563,-0.39063 A 22.5,22.5 0 0 0 358,101.58594 v -0.002 a 22.5,22.5 0 0 0 0.23633,-0.17968 22.5,22.5 0 0 0 0.006,-0.004 22.5,22.5 0 0 0 0.46289,-0.40625 22.5,22.5 0 0 0 0.33398,-0.29297 22.5,22.5 0 0 0 0.0274,-0.0254 22.5,22.5 0 0 0 0.83203,-0.775389 22.5,22.5 0 0 0 0.006,-0.0059 22.5,22.5 0 0 0 0.35547,-0.382812 22.5,22.5 0 0 0 0.38867,-0.416016 22.5,22.5 0 0 0 0.0273,-0.02734 22.5,22.5 0 0 0 0.32422,-0.371093 22.5,22.5 0 0 0 0.4043,-0.458985 22.5,22.5 0 0 0 0.004,-0.0059 22.5,22.5 0 0 0 0.67774,-0.892578 22.5,22.5 0 0 0 0.66015,-0.919922 22.5,22.5 0 0 0 0.006,-0.0098 22.5,22.5 0 0 0 0.56055,-0.914062 22.5,22.5 0 0 0 0.0117,-0.01953 22.5,22.5 0 0 0 0.5664,-0.990234 22.5,22.5 0 0 0 0.47852,-0.990234 22.5,22.5 0 0 0 0.4707,-1.052735 22.5,22.5 0 0 0 0.38477,-1.052734 22.5,22.5 0 0 1 0,-0.002 22.5,22.5 0 0 0 0.0566,-0.171875 22.5,22.5 0 0 0 0.0918,-0.238281 22.5,22.5 0 0 0 0.0293,-0.07617 22.5,22.5 0 0 0 0.002,-0.0078 22.5,22.5 0 0 0 0.0703,-0.255859 22.5,22.5 0 0 0 0.0977,-0.296875 22.5,22.5 0 0 0 0.27929,-1.085938 22.5,22.5 0 0 0 0.006,-0.02539 22.5,22.5 0 0 0 0.008,-0.0332 22.5,22.5 0 0 0 0.0176,-0.06641 22.5,22.5 0 0 0 0.11328,-0.443359 22.5,22.5 0 0 0 0.002,-0.0078 22.5,22.5 0 0 0 0.0508,-0.302735 22.5,22.5 0 0 0 0.0508,-0.232422 22.5,22.5 0 0 0 0.16797,-1.101562 22.5,22.5 0 0 0 0.002,-0.01758 22.5,22.5 0 0 0 0.004,-0.0293 22.5,22.5 0 0 0 0.0859,-0.572266 22.5,22.5 0 0 0 0.0195,-0.308594 22.5,22.5 0 0 0 0.0234,-0.191406 22.5,22.5 0 0 0 0.0391,-0.77539 A 22.5,22.5 0 0 0 366.5,84 a 22.5,22.5 0 0 0 -0.0586,-1.148438 22.5,22.5 0 0 0 -0.0391,-0.77539 22.5,22.5 0 0 0 -0.0234,-0.191406 22.5,22.5 0 0 0 -0.0195,-0.308594 22.5,22.5 0 0 0 -0.0859,-0.572266 22.5,22.5 0 0 0 -0.004,-0.0293 22.5,22.5 0 0 0 -0.002,-0.01758 22.5,22.5 0 0 0 -0.16797,-1.101562 22.5,22.5 0 0 0 -0.0508,-0.232422 22.5,22.5 0 0 0 -0.0508,-0.302735 22.5,22.5 0 0 0 -0.002,-0.0078 22.5,22.5 0 0 0 -0.0976,-0.382812 22.5,22.5 0 0 0 -0.0156,-0.06055 22.5,22.5 0 0 0 -0.0176,-0.06641 22.5,22.5 0 0 0 -0.008,-0.0332 22.5,22.5 0 0 0 -0.006,-0.02539 22.5,22.5 0 0 0 -0.27929,-1.085938 22.5,22.5 0 0 0 -0.0977,-0.296875 22.5,22.5 0 0 0 -0.0703,-0.255859 22.5,22.5 0 0 0 -0.002,-0.0078 22.5,22.5 0 0 0 -0.0254,-0.06836 22.5,22.5 0 0 0 -0.004,-0.0078 22.5,22.5 0 0 0 -0.0918,-0.238281 22.5,22.5 0 0 0 -0.0566,-0.171875 22.5,22.5 0 0 0 0,-0.002 22.5,22.5 0 0 0 -0.38477,-1.052734 22.5,22.5 0 0 0 -0.4707,-1.052735 22.5,22.5 0 0 0 -0.47852,-0.990234 22.5,22.5 0 0 0 -0.5664,-0.990234 22.5,22.5 0 0 0 -0.0117,-0.01953 22.5,22.5 0 0 0 -0.56055,-0.914062 22.5,22.5 0 0 0 -0.66601,-0.929688 22.5,22.5 0 0 0 -0.67774,-0.892578 22.5,22.5 0 0 0 -0.4082,-0.464844 22.5,22.5 0 0 0 -0.32422,-0.371093 22.5,22.5 0 0 0 -0.0254,-0.02734 22.5,22.5 0 0 0 -0.74414,-0.798828 22.5,22.5 0 0 0 -0.83789,-0.78125 22.5,22.5 0 0 0 -0.0273,-0.02539 22.5,22.5 0 0 0 -0.33594,-0.292969 22.5,22.5 0 0 0 -0.46094,-0.40625 A 22.5,22.5 0 0 0 358,66.419922 v -0.0059 a 22.5,22.5 0 0 0 -1.08594,-0.80664 22.5,22.5 0 0 0 -0.008,-0.0039 22.5,22.5 0 0 0 -0.004,-0.0039 22.5,22.5 0 0 0 -0.25781,-0.183593 22.5,22.5 0 0 0 -0.002,-0.002 22.5,22.5 0 0 0 -1.45117,-0.892578 22.5,22.5 0 0 0 -0.20313,-0.125 22.5,22.5 0 0 0 -0.0254,-0.01563 22.5,22.5 0 0 0 -0.19141,-0.109375 22.5,22.5 0 0 0 -0.0742,-0.04297 22.5,22.5 0 0 0 -1.39844,-0.679688 22.5,22.5 0 0 0 -0.21875,-0.105469 22.5,22.5 0 0 0 -0.01,-0.0039 22.5,22.5 0 0 0 -0.1875,-0.08398 22.5,22.5 0 0 0 -1.66211,-0.63086 22.5,22.5 0 0 0 -0.15625,-0.05664 22.5,22.5 0 0 0 -0.01,-0.0039 22.5,22.5 0 0 0 -0.16992,-0.05664 22.5,22.5 0 0 0 -1.63868,-0.453125 22.5,22.5 0 0 0 -0.23242,-0.06055 22.5,22.5 0 0 0 -0.0117,-0.002 22.5,22.5 0 0 0 -0.17578,-0.03906 22.5,22.5 0 0 0 -1.6914,-0.302734 22.5,22.5 0 0 0 -0.19141,-0.0293 22.5,22.5 0 0 0 -0.0273,-0.0039 22.5,22.5 0 0 0 -0.19141,-0.02344 A 22.5,22.5 0 0 0 344,61.5 Z m 0,4.5 a 18,18 0 0 1 1.60156,0.08008 18,18 0 0 1 0.97656,0.126953 18,18 0 0 1 0.77735,0.117188 18,18 0 0 1 1.08203,0.253906 18,18 0 0 1 0.64844,0.166016 18,18 0 0 1 1.0957,0.373047 18,18 0 0 1 0.59766,0.21875 18,18 0 0 1 1.07617,0.492187 18,18 0 0 1 0.55273,0.267578 18,18 0 0 1 1.05469,0.617188 18,18 0 0 1 0.47461,0.292968 18,18 0 0 1 1.05664,0.769532 A 18,18 0 0 1 358.23438,73 h -0.0156 a 18,18 0 0 1 1.55859,2.375 18,18 0 0 1 0.72852,1.498047 18,18 0 0 1 0.0801,0.179687 18,18 0 0 1 0.52148,1.423828 18,18 0 0 1 0.0996,0.298829 18,18 0 0 1 0.3457,1.335937 18,18 0 0 1 0.10157,0.457031 18,18 0 0 1 0.1875,1.228516 18,18 0 0 1 0.0723,0.589844 18,18 0 0 1 0.084,1.613281 18,18 0 0 1 -0.004,0.115234 18,18 0 0 1 -0.0762,1.441407 18,18 0 0 1 -0.0918,0.755859 18,18 0 0 1 -0.16601,1.087891 18,18 0 0 1 -0.12696,0.558593 18,18 0 0 1 -0.3125,1.222657 18,18 0 0 1 -0.13867,0.414062 18,18 0 0 1 -0.49414,1.347656 18,18 0 0 1 -0.0879,0.197266 18,18 0 0 1 -0.70312,1.449219 18,18 0 0 1 -0.0625,0.109375 A 18,18 0 0 1 358.8359,94.15625 18,18 0 0 1 358.2207,95 h 0.0117 a 18,18 0 0 1 -3.30469,3.273438 18,18 0 0 1 -0.96484,0.703124 18,18 0 0 1 -0.56641,0.34961 18,18 0 0 1 -0.98632,0.576172 18,18 0 0 1 -0.57422,0.277346 18,18 0 0 1 -1.04688,0.48047 18,18 0 0 1 -0.67773,0.24609 18,18 0 0 1 -0.99414,0.33984 18,18 0 0 1 -0.80469,0.20703 18,18 0 0 1 -0.92773,0.2168 18,18 0 0 1 -0.86719,0.13086 18,18 0 0 1 -0.91406,0.11914 A 18,18 0 0 1 344,102 a 18,18 0 0 1 -0.002,0 18,18 0 0 1 -1.60352,-0.0801 18,18 0 0 1 -0.91406,-0.11914 18,18 0 0 1 -0.86524,-0.13086 18,18 0 0 1 -0.92773,-0.2168 18,18 0 0 1 -0.80469,-0.20703 18,18 0 0 1 -0.97461,-0.33203 18,18 0 0 1 -0.70508,-0.25781 18,18 0 0 1 -1.02929,-0.4707 18,18 0 0 1 -0.58399,-0.283206 18,18 0 0 1 -0.98632,-0.576172 18,18 0 0 1 -0.56836,-0.34961 A 18,18 0 0 1 333.08203,98.28125 18,18 0 0 1 329.76562,95 h 0.0137 a 18,18 0 0 1 -1.52344,-2.316406 18,18 0 0 1 -0.0488,-0.08594 18,18 0 0 1 -0.70703,-1.457031 18,18 0 0 1 -0.0879,-0.197266 18,18 0 0 1 -0.50586,-1.376953 18,18 0 0 1 -0.12109,-0.367187 18,18 0 0 1 -0.31641,-1.22461 18,18 0 0 1 -0.13281,-0.59375 18,18 0 0 1 -0.16016,-1.050781 18,18 0 0 1 -0.0937,-0.773437 A 18,18 0 0 1 326,84 a 18,18 0 0 1 0.082,-1.583984 18,18 0 0 1 0.082,-0.666016 18,18 0 0 1 0.17969,-1.179688 18,18 0 0 1 0.10742,-0.470703 18,18 0 0 1 0.33399,-1.30664 18,18 0 0 1 0.11328,-0.341797 18,18 0 0 1 0.52148,-1.416016 18,18 0 0 1 0.0606,-0.132812 18,18 0 0 1 0.73242,-1.511719 18,18 0 0 1 0.0273,-0.04883 18,18 0 0 1 0.92383,-1.5 A 18,18 0 0 1 329.7793,73 h -0.0137 a 18,18 0 0 1 3.23047,-3.21875 18,18 0 0 1 1.06446,-0.775391 18,18 0 0 1 0.48437,-0.296875 18,18 0 0 1 1.04688,-0.613281 18,18 0 0 1 0.55273,-0.267578 18,18 0 0 1 1.07617,-0.492187 18,18 0 0 1 0.60742,-0.220704 18,18 0 0 1 1.07813,-0.36914 18,18 0 0 1 0.67773,-0.173828 18,18 0 0 1 1.05469,-0.248047 18,18 0 0 1 0.79102,-0.117188 18,18 0 0 1 0.96875,-0.126953 A 18,18 0 0 1 344,66 Z"
         id="path2118"
         inkscape:connector-curvature="0" />
      <circle
         style="display:inline;opacity:1;vector-effect:none;fill:#4f01b2;fill-opacity:1;stroke:none;stroke-width:15.99874115;stroke-linecap:butt;stroke-linejoin:round;stroke-miterlimit:4;stroke-dasharray:none;stroke-dashoffset:6.5999999;stroke-opacity:1;enable-background:new"
         id="path1070-6"
         cx="170.17152"
         cy="310.53769"
         r="18"
         transform="matrix(0.25881905,0.96592583,0.96592583,-0.25881905,0,0)" />
      <circle
         style="display:inline;opacity:1;vector-effect:none;fill:#4f01b2;fill-opacity:1;stroke:none;stroke-width:15.99873924;stroke-linecap:butt;stroke-linejoin:round;stroke-miterlimit:4;stroke-dasharray:none;stroke-dashoffset:6.5999999;stroke-opacity:1;enable-background:new"
         id="path1070-6-5"
         cx="229.92023"
         cy="286.24588"
         transform="matrix(0.25881903,0.96592583,0.96592582,-0.25881907,0,0)"
         r="11" />
      <circle
         style="display:inline;opacity:1;vector-effect:none;fill:#4f01b2;fill-opacity:1;stroke:none;stroke-width:15.99873829;stroke-linecap:butt;stroke-linejoin:round;stroke-miterlimit:4;stroke-dasharray:none;stroke-dashoffset:6.5999999;stroke-opacity:1;enable-background:new"
         id="path1070-6-5-2"
         cx="279.1131"
         cy="268.92355"
         transform="matrix(0.25881904,0.96592583,0.96592582,-0.25881905,0,0)"
         r="9" />
      <circle
         style="display:inline;opacity:1;vector-effect:none;fill:#4f01b2;fill-opacity:1;stroke:none;stroke-width:15.99873734;stroke-linecap:butt;stroke-linejoin:round;stroke-miterlimit:4;stroke-dasharray:none;stroke-dashoffset:6.5999999;stroke-opacity:1;enable-background:new"
         id="path1070-6-5-2-6"
         cx="320.57855"
         cy="253.67183"
         transform="matrix(0.25881905,0.96592583,0.96592583,-0.25881905,0,0)"
         r="5.5" />
    </g>
    <g
       inkscape:groupmode="layer"
       id="layer6"
       inkscape:label="Pictograms and folds"
       style="display:inline">
      <path
         style="display:inline;opacity:0.1;fill:#ffffff;fill-opacity:1;stroke:none;stroke-width:1.99999988;stroke-linecap:round;stroke-linejoin:round;stroke-miterlimit:4;stroke-dasharray:none;stroke-opacity:1;enable-background:new"
         d="m 322.10847,86.00004 c 1.03349,11.321421 10.52263,19.99082 21.89112,20.00001 11.37187,-0.005 20.86611,-8.675239 21.8999,-20.00001 z"
         id="rect12119-7"
         inkscape:connector-curvature="0"
         sodipodi:nodetypes="cccc"
         clip-path="none" />
      <path
         style="display:inline;opacity:0.1;fill:#ffffff;fill-opacity:1;stroke:none;stroke-width:1.33333325;stroke-linecap:round;stroke-linejoin:round;stroke-miterlimit:4;stroke-dasharray:none;stroke-opacity:1;enable-background:new"
         d="m 321.4055,149.33337 c 0.68899,7.54762 7.01509,13.32722 14.59409,13.33334 7.58124,-0.003 13.91074,-5.78349 14.59994,-13.33334 z"
         id="rect12119-0"
         inkscape:connector-curvature="0"
         sodipodi:nodetypes="cccc"
         clip-path="none" />
      <path
         style="display:inline;opacity:0.1;fill:#ffffff;fill-opacity:1;stroke:none;stroke-width:0.99999994;stroke-linecap:round;stroke-linejoin:round;stroke-miterlimit:4;stroke-dasharray:none;stroke-opacity:1;enable-background:new"
         d="m 321.05403,201.00005 c 0.51675,5.66071 5.26131,9.99541 10.94556,10 5.68593,-0.002 10.43305,-4.33762 10.94995,-10 z"
         id="rect12119-01"
         inkscape:connector-curvature="0"
         sodipodi:nodetypes="cccc"
         clip-path="none" />
      <path
         style="display:inline;opacity:0.1;fill:#ffffff;fill-opacity:1;stroke:none;stroke-width:0.66666663;stroke-linecap:round;stroke-linejoin:round;stroke-miterlimit:4;stroke-dasharray:none;stroke-opacity:1;enable-background:new"
         d="m 320.72654,245 c 0.42175,3.69105 3.54051,6.49699 7.27344,6.5 3.73419,-0.002 6.85565,-2.80766 7.27734,-6.5 z"
         id="rect12119-6"
         inkscape:connector-curvature="0"
         clip-path="none" />
      <path
         sodipodi:nodetypes="ccccccccccccsccccccccccc"
         inkscape:connector-curvature="0"
         id="path967-7-1-7"
         d="m 327.32288,239.89295 c -0.27271,0.56818 -0.53406,1.14395 -0.78405,1.72729 -0.25,0.57573 -0.5039,1.18183 -0.76147,1.81819 -0.24999,0.63635 -0.77266,2.02266 -0.77266,2.02266 l -0.58971,1.43177 h 1.49507 l 0.54088,-1.48616 3.04904,-0.40669 0.64786,1.89285 h 1.48895 l -0.64483,-1.40903 c 0,0 -0.5265,-1.38258 -0.78407,-2.01136 -0.25,-0.63637 -0.50004,-1.24619 -0.75002,-1.82951 -0.25,-0.58332 -0.79539,-1.75001 -0.79539,-1.75001 H 327.989 Z m 1.20443,2.87495 c 0.27272,0.67422 0.55297,1.4015 0.84087,2.18178 l -2.68651,-0.10223 c 0.23484,-0.65908 0.46972,-1.29538 0.70456,-1.90901 0.19355,-0.496 0.39472,-0.97439 0.60278,-1.43662 v -0.009 c 0,0 0.30491,0.6989 0.5383,1.27489 z"
         style="font-style:normal;font-variant:normal;font-weight:300;font-stretch:normal;font-size:196.24819946px;line-height:1000%;font-family:Ubuntu;-inkscape-font-specification:'Ubuntu Light';letter-spacing:0px;word-spacing:0px;display:inline;fill:#fff9f2;fill-opacity:1;stroke:none;stroke-width:0.64935064px;stroke-linecap:butt;stroke-linejoin:miter;stroke-opacity:1;enable-background:new"
         clip-path="none" />
      <path
         sodipodi:nodetypes="cccccccsccccccccc"
         inkscape:connector-curvature="0"
         id="path969-5-8-9"
         d="m 328.66248,239.89295 -0.65843,1.61874 c 0,0 0.29932,0.70255 0.52326,1.25621 0.27273,0.67422 0.55298,1.4015 0.84087,2.18178 v 0 l 1.43731,0.0387 c -0.20139,-0.52954 -0.40063,-1.03521 -0.59759,-1.51602 -0.25,-0.63635 -0.50004,-1.24617 -0.75003,-1.82949 -0.25,-0.58334 -0.79539,-1.75002 -0.79539,-1.75002 z m -0.31069,5.4369 1.15456,0.0786 0.64106,1.48446 h 1.48784 l -0.65709,-1.48075 -0.0121,-0.0321 c -0.85941,-0.0171 6.21742,-0.28454 -2.61428,-0.0502 z"
         style="font-style:normal;font-variant:normal;font-weight:300;font-stretch:normal;font-size:196.24819946px;line-height:1000%;font-family:Ubuntu;-inkscape-font-specification:'Ubuntu Light';letter-spacing:0px;word-spacing:0px;display:inline;opacity:0.2;fill:#4f01b2;fill-opacity:1;stroke:none;stroke-width:0.64935064px;stroke-linecap:butt;stroke-linejoin:miter;stroke-opacity:1;enable-background:new"
         clip-path="none" />
      <path
         sodipodi:nodetypes="ccccccccccccsccccccccccc"
         inkscape:connector-curvature="0"
         id="path967-7-1"
         d="m 330.85805,193.00001 c -0.46754,0.97402 -0.91557,1.96109 -1.34414,2.96109 -0.42856,0.98701 -0.86381,2.02604 -1.30536,3.11695 -0.42857,1.09091 -1.32457,3.46747 -1.32457,3.46747 l -1.01098,2.45449 h 2.56305 l 0.92722,-2.54775 5.36262,0.29775 0.975,2.25 h 2.55252 l -1.10543,-2.41552 c 0,0 -0.90259,-2.37016 -1.34415,-3.44809 -0.42857,-1.09091 -0.85721,-2.13633 -1.28579,-3.13633 -0.42857,-1 -1.36352,-3.00006 -1.36352,-3.00006 h -1.15454 z m 2.06475,4.92854 c 0.46753,1.15585 0.94797,2.4026 1.44147,3.74026 l -4.6055,-0.17526 c 0.4026,-1.12987 0.80525,-2.22068 1.20785,-3.27263 0.33184,-0.85031 0.6767,-1.67041 1.03336,-2.46281 v -0.0152 c 0,0 0.52273,1.19813 0.92282,2.18556 z"
         style="font-style:normal;font-variant:normal;font-weight:300;font-stretch:normal;font-size:196.24819946px;line-height:1000%;font-family:Ubuntu;-inkscape-font-specification:'Ubuntu Light';letter-spacing:0px;word-spacing:0px;display:inline;fill:#ececec;fill-opacity:1;stroke:none;stroke-width:0.64935064px;stroke-linecap:butt;stroke-linejoin:miter;stroke-opacity:1;enable-background:new"
         clip-path="none" />
      <path
         sodipodi:nodetypes="cccccccsccccccccc"
         inkscape:connector-curvature="0"
         id="path969-5-8"
         d="m 333.15452,193.00001 -1.12874,2.77501 c 0,0 0.5131,1.2044 0.89702,2.15353 0.46753,1.15585 0.94796,2.4026 1.44147,3.74026 v 0 l 2.464,0.0665 c -0.34524,-0.9078 -0.68679,-1.77466 -1.02444,-2.59891 -0.42857,-1.09091 -0.85721,-2.13634 -1.28579,-3.13634 -0.42857,-1 -1.36352,-3.00006 -1.36352,-3.00006 z m -0.36042,9.66407 1.97925,0.13465 0.9268,2.20128 h 2.55061 l -0.95425,-2.19494 -0.0208,-0.055 z"
         style="font-style:normal;font-variant:normal;font-weight:300;font-stretch:normal;font-size:196.24819946px;line-height:1000%;font-family:Ubuntu;-inkscape-font-specification:'Ubuntu Light';letter-spacing:0px;word-spacing:0px;display:inline;opacity:0.2;fill:#4f01b2;fill-opacity:1;stroke:none;stroke-width:0.64935064px;stroke-linecap:butt;stroke-linejoin:miter;stroke-opacity:1;enable-background:new"
         clip-path="none" />
      <path
         style="font-style:normal;font-variant:normal;font-weight:300;font-stretch:normal;font-size:196.24819946px;line-height:1000%;font-family:Ubuntu;-inkscape-font-specification:'Ubuntu Light';letter-spacing:0px;word-spacing:0px;display:inline;opacity:0.2;fill:#000000;fill-opacity:1;stroke:none;stroke-width:4.90620422px;stroke-linecap:butt;stroke-linejoin:miter;stroke-opacity:1;enable-background:new"
         d="m 341.37889,70.97041 c -0.96969,2.02021 -1.69901,3.46694 -2.58789,5.54102 -0.88889,2.04714 -1.79316,4.20222 -2.70898,6.46484 -0.34279,0.87254 -0.69223,1.78275 -1.04298,2.69532 -0.21612,0.49365 -0.45931,1.0854 -0.83983,2.10742 -0.63767,1.69435 -1.0658,2.71459 -1.77735,4.59375 -0.25923,0.65575 -0.5421,1.38921 -0.99218,2.62695 h 3.02928 2.28517 l 2.24608,-6.25195 5.00978,-0.2168 3.47656,0.15039 1.5332,0.0664 2.2461,6.25195 h 2.28515 3.0293 c -0.45008,-1.23774 -0.73294,-1.9712 -0.9922,-2.62695 -0.71154,-1.87916 -1.13967,-2.89939 -1.77733,-4.59375 -0.38054,-1.02201 -0.62373,-1.61376 -0.83984,-2.10742 -0.35075,-0.91257 -0.70019,-1.82278 -1.04297,-2.69531 -0.91582,-2.26263 -1.62087,-3.81615 -2.50977,-5.86328 -0.57813,-1.34899 -1.1787,-2.68342 -1.79101,-4.00977 -0.0666,-0.14413 -0.12836,-0.29168 -0.19532,-0.43555 l -0.0762,-0.14453 c -0.24153,-0.51763 -0.47784,-1.03864 -0.7246,-1.55273 h -0.0801 -2.6875 -0.10743 -2.28711 z m 2.62109,4.9668 c 0.0176,0.0411 0.035,0.0819 0.0527,0.12305 v 0.0312 c 0.73973,1.64348 1.45629,3.34382 2.14454,5.10742 0.41751,1.09091 0.62817,1.58404 0.83983,2.09766 0.21165,0.51361 0.42431,1.04703 0.8418,2.21875 l -1.25,0.0469 -0.0586,0.002 -2.57031,0.0918 -3.87891,-0.13868 c 0.835,-2.34343 0.84662,-2.13654 1.68164,-4.31836 0.68824,-1.7636 1.40479,-3.46394 2.14454,-5.10742 v -0.0312 c 0.0176,-0.0411 0.0351,-0.082 0.0527,-0.12304 z"
         id="text954-5-2-6"
         inkscape:connector-curvature="0"
         clip-path="none" />
      <circle
         style="color:#000000;display:inline;overflow:visible;visibility:visible;opacity:1;fill:#000000;fill-opacity:0;fill-rule:nonzero;stroke:none;stroke-width:0.47826084;stroke-linecap:butt;stroke-linejoin:miter;stroke-miterlimit:4;stroke-dasharray:1.43478257, 1.43478257;stroke-dashoffset:0;stroke-opacity:1;marker:none;enable-background:accumulate"
         id="circle1535-9"
         cx="335.99997"
         cy="148"
         r="11"
         clip-path="none" />
      <path
         sodipodi:nodetypes="cccccccccccccccccccccccc"
         inkscape:connector-curvature="0"
         id="path967-7"
         d="m 334.4774,139 -1.79219,3.94813 -1.74049,4.15593 -1.80047,3.62329 -1.34797,3.27266 h 3.4174 l 1.2363,-3.397 7.15017,0.397 1.3,3 h 3.40337 l -1.47392,-3.2207 -1.75782,-3.59744 -1.71438,-4.18179 L 337.53936,139 h -1.53938 z m 2.75301,6.5714 1.88759,4.98744 -6.14067,-0.23369 1.64483,-4.36393 1.37783,-3.28375 v -0.0202 l 1.23042,2.91409 z"
         style="font-style:normal;font-variant:normal;font-weight:300;font-stretch:normal;font-size:196.24819946px;line-height:1000%;font-family:Ubuntu;-inkscape-font-specification:'Ubuntu Light';letter-spacing:0px;word-spacing:0px;display:inline;fill:#ececec;fill-opacity:1;stroke:none;stroke-width:0.64935064px;stroke-linecap:butt;stroke-linejoin:miter;stroke-opacity:1;enable-background:new"
         clip-path="none" />
      <path
         sodipodi:nodetypes="ccccccccccccccccc"
         inkscape:connector-curvature="0"
         id="path969-5"
         d="m 337.53936,139 -1.505,3.70002 2.1152,5.3 0.96844,1.55839 v 0 l 3.28534,0.0887 -1.33156,-2.46521 -1.71437,-4.18179 -1.81805,-4.00008 z m -0.51493,11.88543 2.639,0.17953 1.23574,2.93505 h 3.40082 l -1.27234,-2.92659 -0.0277,-0.0734 z"
         style="font-style:normal;font-variant:normal;font-weight:300;font-stretch:normal;font-size:196.24819946px;line-height:1000%;font-family:Ubuntu;-inkscape-font-specification:'Ubuntu Light';letter-spacing:0px;word-spacing:0px;display:inline;opacity:0.2;fill:#4f01b2;fill-opacity:1;stroke:none;stroke-width:0.64935064px;stroke-linecap:butt;stroke-linejoin:miter;stroke-opacity:1;enable-background:new"
         clip-path="none" />
      <rect
         style="color:#000000;display:inline;overflow:visible;visibility:visible;opacity:1;fill:#ececec;fill-opacity:1;fill-rule:nonzero;stroke:none;stroke-width:2;stroke-linecap:butt;stroke-linejoin:miter;stroke-miterlimit:4;stroke-dasharray:2.00000005, 2.00000005;stroke-dashoffset:0;stroke-opacity:1;marker:none;enable-background:accumulate"
         id="rect958"
         width="17.999998"
         height="3"
         x="326.99997"
         y="148"
         ry="1.4687499"
         rx="1.4687499"
         clip-path="none" />
      <path
         style="color:#000000;display:inline;overflow:visible;visibility:visible;opacity:1;fill:#999999;fill-opacity:1;fill-rule:nonzero;stroke:none;stroke-width:1.99999988;stroke-linecap:butt;stroke-linejoin:miter;stroke-miterlimit:4;stroke-dasharray:2.00000015, 2.00000014999999998;stroke-dashoffset:0;stroke-opacity:1;marker:none;enable-background:accumulate"
         d="m 328.59959,148.99971 c -0.3324,0 -0.59961,0.223 -0.59961,0.5 0,0.277 0.26721,0.5 0.59961,0.5 h 4 5.80078 5 c 0.3324,0 0.59961,-0.223 0.59961,-0.5 0,-0.277 -0.26721,-0.5 -0.59961,-0.5 h -5 -5.80078 z"
         id="rect962"
         inkscape:connector-curvature="0"
         clip-path="none" />
      <rect
         style="color:#000000;display:inline;overflow:visible;visibility:visible;opacity:1;fill:#f8f8f8;fill-opacity:1;fill-rule:nonzero;stroke:none;stroke-width:2;stroke-linecap:butt;stroke-linejoin:miter;stroke-miterlimit:4;stroke-dasharray:2.00000001, 2.00000001;stroke-dashoffset:0;stroke-opacity:1;marker:none;enable-background:accumulate"
         id="rect4270-9"
         width="13.999936"
         height="3"
         x="325.00009"
         y="199.99998"
         ry="1.5"
         rx="1.5"
         clip-path="none" />
      <path
         style="color:#000000;display:inline;overflow:visible;visibility:visible;opacity:1;fill:#999999;fill-opacity:1;fill-rule:nonzero;stroke:none;stroke-width:1.99999988;stroke-linecap:butt;stroke-linejoin:miter;stroke-miterlimit:4;stroke-dasharray:2.00000001, 2.00000000999999994;stroke-dashoffset:0;stroke-opacity:1;marker:none;enable-background:accumulate"
         d="m 326.49998,200.99971 c -0.277,0 -0.5,0.223 -0.5,0.5 0,0.277 0.223,0.5 0.5,0.5 h 3.93359 3.06641 4.06641 c 0.24027,0 0.43359,-0.19332 0.43359,-0.43359 v -0.13282 c 0,-0.24027 -0.19332,-0.43359 -0.43359,-0.43359 h -4.06641 -3.06641 z"
         id="rect4272-3"
         inkscape:connector-curvature="0"
         clip-path="none" />
      <rect
         rx="0.77142125"
         ry="0.77777553"
         y="243.8889"
         x="324.00003"
         height="1.5555511"
         width="8"
         id="rect4270-9-8"
         style="color:#000000;display:inline;overflow:visible;visibility:visible;opacity:1;fill:#f8f8f8;fill-opacity:1;fill-rule:nonzero;stroke:none;stroke-width:1.99999988;stroke-linecap:butt;stroke-linejoin:miter;stroke-miterlimit:4;stroke-dasharray:2.00000001, 2.00000001;stroke-dashoffset:0;stroke-opacity:1;marker:none;enable-background:accumulate"
         clip-path="none" />
      <path
         style="font-style:normal;font-variant:normal;font-weight:300;font-stretch:normal;font-size:196.24819946px;line-height:1000%;font-family:Ubuntu;-inkscape-font-specification:'Ubuntu Light';letter-spacing:0px;word-spacing:0px;display:inline;fill:#ebebeb;fill-opacity:1;stroke:none;stroke-width:4.90620422px;stroke-linecap:butt;stroke-linejoin:miter;stroke-opacity:1;enable-background:new"
         d="m 341.37846,69.9705 c -0.96969,2.02021 -1.69918,3.46721 -2.58805,5.54129 -0.88891,2.04713 -1.79163,4.20216 -2.70745,6.46478 -0.34277,0.87253 -0.69314,1.7828 -1.04387,2.69537 -0.21612,0.49366 -0.4591,1.08466 -0.83963,2.10668 -0.63766,1.69435 -1.06527,2.71382 -1.77683,4.59298 -0.25924,0.65575 -0.54354,1.39048 -0.99362,2.62822 h 3.03033 2.28561 l 2.24529,-6.25171 5.00954,-0.21794 5.00994,0.21794 2.24529,6.25171 h 2.28563 3.03031 c -0.45007,-1.23774 -0.73438,-1.97247 -0.99362,-2.62822 -0.71155,-1.87915 -1.13916,-2.89863 -1.77683,-4.59298 -0.38054,-1.02202 -0.6235,-1.61302 -0.83961,-2.10668 -0.35075,-0.91257 -0.70111,-1.82284 -1.04389,-2.69537 -0.91581,-2.26262 -1.61898,-3.81776 -2.50789,-5.86489 -0.88887,-2.07408 -1.81814,-4.12173 -2.78785,-6.14194 h -0.0804 l -2.68736,3.2e-4 h -0.10652 l -2.28803,8.6e-4 z m 2.62133,4.96626 c 0.0176,0.0411 0.0359,0.0815 0.0536,0.12265 v 0.0314 c 0.73973,1.64347 1.45501,3.34445 2.14326,5.10805 0.83502,2.18182 0.84661,1.97366 1.68164,4.3171 l -3.87838,0.13993 -3.87799,-0.13993 c 0.835,-2.34344 0.84661,-2.13528 1.68163,-4.3171 0.68824,-1.7636 1.40351,-3.46458 2.14326,-5.10805 v -0.0314 c 0.0176,-0.0411 0.0355,-0.0816 0.0531,-0.12265 z"
         id="text954-5-2"
         inkscape:connector-curvature="0"
         sodipodi:nodetypes="cccccccccccccccccccccccccccccccccccccc"
         clip-path="none" />
      <path
         style="font-style:normal;font-variant:normal;font-weight:300;font-stretch:normal;font-size:196.24819946px;line-height:1000%;font-family:Ubuntu;-inkscape-font-specification:'Ubuntu Light';letter-spacing:0px;word-spacing:0px;display:inline;opacity:0.2;fill:#4f01b2;fill-opacity:1;stroke:none;stroke-width:4.90620422px;stroke-linecap:butt;stroke-linejoin:miter;stroke-opacity:1;enable-background:new"
         d="m 346.56697,70.04172 -2.56699,4.85799 c 0.72575,1.61627 1.52056,3.56687 2.19655,5.29912 0.83502,2.18182 0.84663,1.97365 1.68164,4.31709 l -1.30808,0.047 0.90717,3.11839 1.53247,0.0667 2.24529,6.25172 h 2.28562 3.03032 c -0.45008,-1.23774 -0.73439,-1.97248 -0.99363,-2.62822 -0.71154,-1.87917 -1.13916,-2.89864 -1.77683,-4.59299 -0.38054,-1.02202 -0.6235,-1.61302 -0.83961,-2.10668 -0.35074,-0.91257 -0.70111,-1.82284 -1.04389,-2.69537 -0.91581,-2.26262 -1.61898,-3.81775 -2.50788,-5.86489 -0.64092,-1.49547 -1.30352,-2.97673 -1.98643,-4.44421 z"
         id="path1693-0"
         inkscape:connector-curvature="0"
         sodipodi:nodetypes="ccccccccccccccccc"
         clip-path="none" />
      <rect
         rx="2.4705882"
         style="color:#000000;display:inline;overflow:visible;visibility:visible;opacity:0.2;fill:#000000;fill-opacity:1;fill-rule:nonzero;stroke:none;stroke-width:1.99999988;stroke-linecap:butt;stroke-linejoin:miter;stroke-miterlimit:4;stroke-dasharray:2.00000007, 2.00000007;stroke-dashoffset:0;stroke-opacity:1;marker:none;enable-background:accumulate"
         id="rect4270-93-6"
         width="28"
         height="5"
         x="329.94669"
         y="84.899704"
         ry="2.5"
         clip-path="none" />
      <rect
         rx="2.4705882"
         style="color:#000000;display:inline;overflow:visible;visibility:visible;opacity:1;fill:#ebebeb;fill-opacity:1;fill-rule:nonzero;stroke:none;stroke-width:1.99999988;stroke-linecap:butt;stroke-linejoin:miter;stroke-miterlimit:4;stroke-dasharray:2.00000007, 2.00000007000000002;stroke-dashoffset:0;stroke-opacity:1;marker:none;enable-background:accumulate"
         id="rect4270-93"
         width="28"
         height="5"
         x="329.94669"
         y="83.899704"
         ry="2.5"
         clip-path="none" />
      <path
         style="color:#000000;display:inline;overflow:visible;visibility:visible;opacity:1;fill:#999999;fill-opacity:1;fill-rule:nonzero;stroke:none;stroke-width:2;stroke-linecap:butt;stroke-linejoin:miter;stroke-miterlimit:4;stroke-dasharray:2.00000008, 2.00000007999999996;stroke-dashoffset:0;stroke-opacity:1;marker:none;enable-background:accumulate"
         d="m 332.80076,86 c -0.4432,0 -0.80078,0.223 -0.80078,0.5 0,0.277 0.35758,0.5 0.80078,0.5 h 7.92383 6.47461 8.07617 c 0.40165,0 0.72461,-0.20209 0.72461,-0.45312 v -0.0937 c 0,-0.25103 -0.32296,-0.45313 -0.72461,-0.45313 h -8.07617 -6.47461 z"
         id="rect4272-6"
         inkscape:connector-curvature="0"
         clip-path="none" />
      <path
         style="display:inline;opacity:0.3;fill:#ffffff;fill-opacity:1;stroke:none;stroke-width:1;stroke-linecap:round;stroke-linejoin:round;stroke-miterlimit:4;stroke-dasharray:none;stroke-opacity:1;enable-background:new"
         d="M 239.98436,156.72852 C 239.80315,176.9121 232.70001,196.4301 219.83201,212 h 1.58008 c 12.0087,-15.41844 18.57438,-34.40846 18.58789,-54 0,-0.42507 -0.01,-0.84784 -0.0156,-1.27148 z"
         id="path19624"
         inkscape:connector-curvature="0"
         clip-path="none" />
      <path
         style="display:inline;opacity:0.1;fill:#ffffff;fill-opacity:1;stroke:none;stroke-width:10.66666603;stroke-linecap:round;stroke-linejoin:round;stroke-miterlimit:4;stroke-dasharray:none;stroke-opacity:1;enable-background:new"
         d="M 40,165.6959 C 45.28651,223.60726 93.82538,267.95298 151.97754,268 210.14691,267.9762 258.7119,223.62441 264,165.6959 Z"
         id="rect12119"
         inkscape:connector-curvature="0"
         sodipodi:nodetypes="cccc"
         clip-path="none" />
      <ellipse
         style="opacity:0.50800003;vector-effect:none;fill:#000000;fill-opacity:0.99502486;stroke:none;stroke-width:32;stroke-linecap:butt;stroke-linejoin:round;stroke-miterlimit:4;stroke-dasharray:none;stroke-dashoffset:6.5999999;stroke-opacity:1"
         id="path1464"
         cx="150"
         cy="244"
         r="48" />
      <path
         style="fill:#000000"
         d=""
         id="path1017"
         inkscape:connector-curvature="0" />
      <path
         style="fill:#000000"
         d=""
         id="path1015"
         inkscape:connector-curvature="0" />
      <path
         style="font-style:normal;font-variant:normal;font-weight:300;font-stretch:normal;font-size:196.24819946px;line-height:1000%;font-family:Ubuntu;-inkscape-font-specification:'Ubuntu Light';letter-spacing:0px;word-spacing:0px;display:inline;opacity:0.1;fill:#000000;fill-opacity:1;stroke:none;stroke-width:4.9062047px;stroke-linecap:butt;stroke-linejoin:miter;stroke-opacity:1;filter:url(#filter1062-3);enable-background:new"
         d="m 140.49607,84.00001 c -4.70996,9.81241 -9.22355,19.756 -13.54101,29.83008 -4.31746,9.94324 -8.7021,20.41049 -13.15039,31.40039 -1.66494,4.23801 -3.36668,8.65932 -5.07031,13.0918 -1.04969,2.39777 -2.22981,5.26835 -4.07813,10.23242 -3.0972,8.22972 -6.63179,17.55233 -10.08789,26.67969 -1.25915,3.18508 -2.64003,6.75373 -4.82617,12.76562 h 14.71875 11.10156 l 12.36329,-34.73633 24.33202,-1.05859 24.334,1.05859 12.36327,34.73633 h 11.10156 14.71875 c -2.18614,-6.01189 -3.56702,-9.58054 -4.82616,-12.76562 -3.45609,-9.12736 -6.9907,-18.44997 -10.08789,-26.67969 -1.84833,-4.96407 -3.02845,-7.83465 -4.07813,-10.23242 -1.70363,-4.43248 -3.40538,-8.85379 -5.07032,-13.0918 -4.44828,-10.9899 -8.83292,-21.45715 -13.15038,-31.40039 -4.31747,-10.07409 -8.83107,-20.01767 -13.54102,-29.83008 h -0.39063 -11.11328 -0.51758 -11.11328 z m 11.76172,27.03711 c 0.0856,0.19974 0.17424,0.39587 0.25977,0.5957 v 0.15235 c 3.59305,7.98261 7.06728,16.24447 10.41015,24.81054 4.0558,10.59741 4.11217,9.58637 8.16797,20.96875 l -18.83789,0.67969 -18.83593,-0.67969 c 4.0558,-11.38238 4.11216,-10.37134 8.16796,-20.96875 3.34287,-8.56607 6.81711,-16.82793 10.41016,-24.81054 v -0.15235 c 0.0854,-0.19959 0.17233,-0.3962 0.25781,-0.5957 z"
         id="path1052-7"
         inkscape:connector-curvature="0"
         clip-path="none" />
      <path
         style="font-style:normal;font-variant:normal;font-weight:300;font-stretch:normal;font-size:196.24819946px;line-height:1000%;font-family:Ubuntu;-inkscape-font-specification:'Ubuntu Light';letter-spacing:0px;word-spacing:0px;display:inline;fill:#ebebeb;fill-opacity:1;stroke:none;stroke-width:4.9062047px;stroke-linecap:butt;stroke-linejoin:miter;stroke-opacity:1;enable-background:new"
         d="m 140.49607,82.00001 c -4.70996,9.81241 -9.22355,19.756 -13.54101,29.83008 -4.31746,9.94324 -8.7021,20.4105 -13.15039,31.40039 -1.66494,4.23801 -3.36668,8.65932 -5.07031,13.0918 -1.04969,2.39777 -2.22981,5.26836 -4.07813,10.23242 -3.0972,8.22972 -6.6318,17.55233 -10.08789,26.67969 -1.25915,3.18508 -2.64003,6.75373 -4.82617,12.76562 h 14.71875 11.10156 l 12.36329,-34.73633 24.33202,-1.05859 24.334,1.05859 12.36327,34.73633 h 11.10156 14.71875 c -2.18614,-6.01189 -3.56702,-9.58054 -4.82616,-12.76562 -3.45609,-9.12736 -6.9907,-18.44997 -10.08789,-26.67969 -1.84833,-4.96406 -3.02845,-7.83465 -4.07813,-10.23242 -1.70363,-4.43248 -3.40538,-8.85379 -5.07032,-13.0918 -4.44828,-10.98989 -8.83292,-21.45715 -13.15038,-31.40039 -4.31747,-10.07409 -8.83107,-20.01767 -13.54102,-29.83008 h -0.39063 -11.11328 -0.51758 -11.11328 z m 11.76172,27.03711 c 0.0856,0.19974 0.17424,0.39587 0.25977,0.5957 v 0.15235 c 3.59305,7.98261 7.06728,16.24447 10.41015,24.81054 4.0558,10.59741 4.11217,9.58635 8.16797,20.96875 l -18.83789,0.67969 -18.83593,-0.67969 c 4.0558,-11.3824 4.11216,-10.37134 8.16796,-20.96875 3.34287,-8.56607 6.81711,-16.82793 10.41016,-24.81054 v -0.15235 c 0.0854,-0.19959 0.17233,-0.3962 0.25781,-0.5957 z"
         id="text954-5"
         inkscape:connector-curvature="0"
         clip-path="none" />
      <rect
         ry="12"
         y="156"
         x="83.999992"
         height="24"
         width="136"
         id="rect1040"
         style="color:#000000;display:inline;overflow:visible;visibility:visible;opacity:0.1;fill:#000000;fill-opacity:1;fill-rule:nonzero;stroke:none;stroke-width:2;stroke-linecap:butt;stroke-linejoin:miter;stroke-miterlimit:4;stroke-dasharray:2, 2;stroke-dashoffset:0;stroke-opacity:1;marker:none;filter:url(#filter1066);enable-background:accumulate"
         rx="12"
         clip-path="none" />
      <path
         style="font-style:normal;font-variant:normal;font-weight:300;font-stretch:normal;font-size:196.24819946px;line-height:1000%;font-family:Ubuntu;-inkscape-font-specification:'Ubuntu Light';letter-spacing:0px;word-spacing:0px;display:inline;opacity:0.2;fill:#4f01b2;fill-opacity:1;stroke:none;stroke-width:4.9062047px;stroke-linecap:butt;stroke-linejoin:miter;stroke-opacity:1;enable-background:new"
         d="m 163.75779,82.34962 -11.05077,27.86523 c 3.52501,7.85046 6.93725,15.96708 10.22069,24.38086 4.0558,10.59741 4.11217,9.58635 8.16797,20.96875 l -6.35351,0.22852 4.40625,15.14648 7.44337,0.32422 12.36327,34.73633 h 11.10156 14.71875 c -2.18614,-6.01189 -3.56702,-9.58054 -4.82616,-12.76562 -3.45609,-9.12737 -6.9907,-18.44997 -10.08789,-26.67969 -1.84833,-4.96406 -3.02845,-7.83465 -4.07813,-10.23242 -1.70363,-4.43248 -3.40538,-8.85379 -5.07032,-13.0918 -4.44828,-10.98989 -8.83292,-21.45715 -13.15038,-31.40039 -3.113,-7.26369 -6.33141,-14.45625 -9.64844,-21.58399 z"
         id="path1693"
         inkscape:connector-curvature="0"
         clip-path="none" />
      <rect
         rx="12"
         style="color:#000000;display:inline;overflow:visible;visibility:visible;opacity:1;fill:#ebebeb;fill-opacity:1;fill-rule:nonzero;stroke:none;stroke-width:2;stroke-linecap:butt;stroke-linejoin:miter;stroke-miterlimit:4;stroke-dasharray:2, 2;stroke-dashoffset:0;stroke-opacity:1;marker:none;enable-background:accumulate"
         id="rect4270"
         width="136"
         height="24"
         x="83.999992"
         y="154"
         ry="12"
         clip-path="none" />
      <path
         style="color:#000000;display:inline;overflow:visible;visibility:visible;opacity:1;fill:#999999;fill-opacity:1;fill-rule:nonzero;stroke:none;stroke-width:2;stroke-linecap:butt;stroke-linejoin:miter;stroke-miterlimit:4;stroke-dasharray:2, 2;stroke-dashoffset:0;stroke-opacity:1;marker:none;enable-background:accumulate"
         d="m 95.99998,161.99971 c -2.216,0 -4,1.784 -4,4 0,2.216 1.784,4 4,4 h 39.625 32.375 40.375 c 2.00825,0 3.625,-1.61675 3.625,-3.625 v -0.75 c 0,-2.00825 -1.61675,-3.625 -3.625,-3.625 h -40.375 -32.375 z"
         id="rect4272"
         inkscape:connector-curvature="0"
         clip-path="none" />
      <rect
         style="display:inline;opacity:1;vector-effect:none;fill:#9005d5;fill-opacity:1;stroke:none;stroke-width:0.5;stroke-linecap:butt;stroke-linejoin:round;stroke-miterlimit:4;stroke-dasharray:none;stroke-dashoffset:6.5999999;stroke-opacity:1;enable-background:new"
         id="rect13100-2-6-6"
         width="80"
         height="8"
         x="92"
         y="161.98453"
         rx="4"
         ry="3.8232231" />
      <path
         id="path11042-9-8-0-61-2"
         d="m 171.99977,158.95886 c -4.35729,0 -7.90059,3.49271 -7.99733,7.83795 -0.001,0.0607 -0.003,0.12133 -0.003,0.18238 1.1e-4,0.0609 9e-4,0.1216 0.003,0.18238 0.0968,4.34524 3.64004,7.83797 7.99733,7.83797 4.3573,0 7.90059,-3.49273 7.99733,-7.83797 0.001,-0.0607 0.003,-0.12146 0.003,-0.18238 -1.1e-4,-0.0609 -8.9e-4,-0.12159 -0.003,-0.18238 -0.0968,-4.34524 -3.64003,-7.83795 -7.99733,-7.83795 z"
         clip-path="none"
         style="display:inline;opacity:0.2;fill:#000000;fill-opacity:1;stroke:none;stroke-width:0.99999994;stroke-linecap:round;stroke-linejoin:round;stroke-miterlimit:4;stroke-dasharray:none;stroke-opacity:1;filter:url(#filter13508-3);enable-background:new"
         inkscape:connector-curvature="0"
         sodipodi:nodetypes="scccscccs" />
      <path
         id="path11042-9-8-0-8-9"
         d="m 171.99977,158.95886 c -4.35729,0 -7.90059,3.49271 -7.99733,7.83795 -0.001,0.0607 -0.003,0.12133 -0.003,0.18238 1.1e-4,0.0609 9e-4,0.1216 0.003,0.18238 0.0968,4.34524 3.64004,7.83797 7.99733,7.83797 4.3573,0 7.90059,-3.49273 7.99733,-7.83797 0.001,-0.0607 0.003,-0.12146 0.003,-0.18238 -1.1e-4,-0.0609 -8.9e-4,-0.12159 -0.003,-0.18238 -0.0968,-4.34524 -3.64003,-7.83795 -7.99733,-7.83795 z"
         clip-path="none"
         style="display:inline;opacity:0.1;fill:#000000;fill-opacity:1;stroke:none;stroke-width:0.99999994;stroke-linecap:round;stroke-linejoin:round;stroke-miterlimit:4;stroke-dasharray:none;stroke-opacity:1;filter:url(#filter13527-7);enable-background:new"
         inkscape:connector-curvature="0"
         sodipodi:nodetypes="scccscccs" />
      <path
         id="path11042-9-8-0-1"
         d="m 171.99977,157.95932 c -4.35729,0 -7.90059,3.49271 -7.99733,7.83795 -0.001,0.0607 -0.003,0.12133 -0.003,0.18238 1.1e-4,0.0609 9e-4,0.1216 0.003,0.18238 0.0968,4.34524 3.64004,7.83797 7.99733,7.83797 4.3573,0 7.90059,-3.49273 7.99733,-7.83797 0.001,-0.0607 0.003,-0.12146 0.003,-0.18238 -1.1e-4,-0.0609 -8.9e-4,-0.12159 -0.003,-0.18238 -0.0968,-4.34524 -3.64003,-7.83795 -7.99733,-7.83795 z"
         clip-path="none"
         style="display:inline;opacity:1;fill:#ebebeb;fill-opacity:1;stroke:none;stroke-width:0.99999994;stroke-linecap:round;stroke-linejoin:round;stroke-miterlimit:4;stroke-dasharray:none;stroke-opacity:1;enable-background:new"
         inkscape:connector-curvature="0"
         sodipodi:nodetypes="scccscccs" />
      <path
         inkscape:connector-curvature="0"
         style="display:inline;opacity:0.3;fill:#ffffff;fill-opacity:1;stroke:none;stroke-width:0.99999994;stroke-linecap:round;stroke-linejoin:round;stroke-miterlimit:4;stroke-dasharray:none;stroke-opacity:1;enable-background:new"
         clip-path="none"
         d="m 172,157.95915 c -4.35729,0 -7.90131,3.49265 -7.99805,7.83789 -0.001,0.0607 -0.002,0.12059 -0.002,0.18164 1.1e-4,0.0609 -1.5e-4,0.12281 0.002,0.18359 0.006,0.27632 0.0272,0.54962 0.0606,0.81836 0.49023,-3.95832 3.85663,-7.02148 7.9375,-7.02148 4.08088,0 7.44723,3.06316 7.9375,7.02148 0.0334,-0.26874 0.0544,-0.54204 0.0606,-0.81836 10e-4,-0.0607 0.002,-0.12267 0.002,-0.18359 -1.1e-4,-0.0609 1.6e-4,-0.12085 -0.002,-0.18164 -0.0968,-4.34524 -3.64075,-7.83789 -7.99805,-7.83789 z"
         id="path11042-9-8-0-6-2" />
      <path
         id="path11042-9-8-0-3-7"
         d="m 171.99977,157.95932 c -4.35729,0 -7.90059,3.49271 -7.99733,7.83795 -0.001,0.0607 -0.003,0.12133 -0.003,0.18238 1.1e-4,0.0609 9e-4,0.1216 0.003,0.18238 0.0968,4.34524 3.64004,7.83797 7.99733,7.83797 4.3573,0 7.90059,-3.49273 7.99733,-7.83797 0.001,-0.0607 0.003,-0.12146 0.003,-0.18238 -1.1e-4,-0.0609 -8.9e-4,-0.12159 -0.003,-0.18238 -0.0968,-4.34524 -3.64003,-7.83795 -7.99733,-7.83795 z"
         clip-path="none"
         style="display:inline;opacity:0.4;fill:none;fill-opacity:1;stroke:#000000;stroke-width:4;stroke-linecap:round;stroke-linejoin:round;stroke-miterlimit:4;stroke-dasharray:none;stroke-opacity:1;enable-background:new"
         inkscape:connector-curvature="0"
         sodipodi:nodetypes="scccscccs" />
      <path
         style="color:#000000;display:inline;overflow:visible;visibility:visible;opacity:1;fill:#9005d5;fill-opacity:1;fill-rule:nonzero;stroke:none;stroke-width:2;stroke-linecap:butt;stroke-linejoin:miter;stroke-miterlimit:4;stroke-dasharray:2.00000008, 2.00000007999999996;stroke-dashoffset:0;stroke-opacity:1;marker:none;enable-background:accumulate"
         d="m 332.80076,86 c -0.4432,0 -0.80078,0.223 -0.80078,0.5 0,0.277 0.35758,0.5 0.80078,0.5 h 5.92383 2.47461 7.07649 c 0.40165,0 0.72461,-0.20209 0.72461,-0.45312 v -0.0937 c 0,-0.25103 -0.32296,-0.45313 -0.72461,-0.45313 h -7.07649 -2.47461 z"
         id="rect4272-6-3"
         inkscape:connector-curvature="0"
         clip-path="none"
         sodipodi:nodetypes="cssccssssccc" />
      <path
         style="color:#000000;display:inline;overflow:visible;visibility:visible;opacity:1;fill:#9005d5;fill-opacity:1;fill-rule:nonzero;stroke:none;stroke-width:1.99999988;stroke-linecap:butt;stroke-linejoin:miter;stroke-miterlimit:4;stroke-dasharray:2.00000015, 2.00000014999999998;stroke-dashoffset:0;stroke-opacity:1;marker:none;enable-background:accumulate"
         d="m 328.59959,148.99971 c -0.3324,0 -0.59961,0.223 -0.59961,0.5 0,0.277 0.26721,0.5 0.59961,0.5 h 4 1.80078 5 c 0.3324,0 0.59961,-0.223 0.59961,-0.5 0,-0.277 -0.26721,-0.5 -0.59961,-0.5 h -5 -1.80078 z"
         id="rect962-6"
         inkscape:connector-curvature="0"
         clip-path="none"
         sodipodi:nodetypes="sssccsssccs" />
      <path
         style="color:#000000;display:inline;overflow:visible;visibility:visible;opacity:1;fill:#9005d5;fill-opacity:1;fill-rule:nonzero;stroke:none;stroke-width:1.99999988;stroke-linecap:butt;stroke-linejoin:miter;stroke-miterlimit:4;stroke-dasharray:2.00000001, 2.00000000999999994;stroke-dashoffset:0;stroke-opacity:1;marker:none;enable-background:accumulate"
         d="m 326.49998,200.99971 c -0.277,0 -0.5,0.223 -0.5,0.5 0,0.277 0.223,0.5 0.5,0.5 h 1.93359 3.06641 2.06641 c 0.24027,0 0.43359,-0.19332 0.43359,-0.43359 v -0.13282 c 0,-0.24027 -0.19332,-0.43359 -0.43359,-0.43359 h -2.06641 -3.06641 z"
         id="rect4272-3-7"
         inkscape:connector-curvature="0"
         clip-path="none"
         sodipodi:nodetypes="sssccssssccs" />
      <circle
         style="display:inline;opacity:0.4;vector-effect:none;fill:#000000;fill-opacity:1;stroke:none;stroke-width:1;stroke-linecap:butt;stroke-linejoin:round;stroke-miterlimit:4;stroke-dasharray:none;stroke-dashoffset:6.5999999;stroke-opacity:1;enable-background:new"
         id="path2922-5"
         cx="348.5"
         cy="86.5"
         r="2.5" />
      <circle
         style="opacity:1;vector-effect:none;fill:#ebebeb;fill-opacity:1;stroke:none;stroke-width:1;stroke-linecap:butt;stroke-linejoin:round;stroke-miterlimit:4;stroke-dasharray:none;stroke-dashoffset:6.5999999;stroke-opacity:1"
         id="path2922"
         cx="348.5"
         cy="86.5"
         r="1.5" />
      <circle
         style="display:inline;opacity:0.4;vector-effect:none;fill:#000000;fill-opacity:1;stroke:none;stroke-width:1;stroke-linecap:butt;stroke-linejoin:round;stroke-miterlimit:4;stroke-dasharray:none;stroke-dashoffset:6.5999999;stroke-opacity:1;enable-background:new"
         id="path2922-5-3"
         cx="338.5"
         cy="149.5"
         r="2.5" />
      <circle
         style="display:inline;opacity:1;vector-effect:none;fill:#ebebeb;fill-opacity:1;stroke:none;stroke-width:1;stroke-linecap:butt;stroke-linejoin:round;stroke-miterlimit:4;stroke-dasharray:none;stroke-dashoffset:6.5999999;stroke-opacity:1;enable-background:new"
         id="path2922-56"
         cx="338.5"
         cy="149.5"
         r="1.5" />
      <circle
         style="display:inline;opacity:0.4;vector-effect:none;fill:#000000;fill-opacity:1;stroke:none;stroke-width:1;stroke-linecap:butt;stroke-linejoin:round;stroke-miterlimit:4;stroke-dasharray:none;stroke-dashoffset:6.5999999;stroke-opacity:1;enable-background:new"
         id="path2922-5-3-2"
         cx="333.5"
         cy="201.5"
         r="2.5" />
      <circle
         style="display:inline;opacity:1;vector-effect:none;fill:#ebebeb;fill-opacity:1;stroke:none;stroke-width:1;stroke-linecap:butt;stroke-linejoin:round;stroke-miterlimit:4;stroke-dasharray:none;stroke-dashoffset:6.5999999;stroke-opacity:1;enable-background:new"
         id="path2922-56-9"
         cx="333.5"
         cy="201.5"
         r="1.5" />
    </g>
    <g
       inkscape:groupmode="layer"
       id="layer2"
       inkscape:label="Borders"
       style="display:inline">
      <circle
         style="display:inline;opacity:0.4;vector-effect:none;fill:none;fill-opacity:1;stroke:#000000;stroke-width:1;stroke-linecap:butt;stroke-linejoin:round;stroke-miterlimit:4;stroke-dasharray:none;stroke-dashoffset:6.5999999;stroke-opacity:1;enable-background:new"
         id="path1377"
         cx="328.00003"
         cy="244.00002"
         r="7.5000005" />
      <ellipse
         style="display:inline;opacity:0.4;vector-effect:none;fill:none;fill-opacity:1;stroke:#000000;stroke-width:1;stroke-linecap:butt;stroke-linejoin:round;stroke-miterlimit:4;stroke-dasharray:none;stroke-dashoffset:6.5999999;stroke-opacity:1;enable-background:new"
         id="path1384"
         cx="332"
         cy="199.97676"
         rx="11.454546"
         ry="11.476745" />
      <circle
         style="display:inline;opacity:0.4;vector-effect:none;fill:none;fill-opacity:1;stroke:#000000;stroke-width:1;stroke-linecap:butt;stroke-linejoin:round;stroke-miterlimit:4;stroke-dasharray:none;stroke-dashoffset:6.5999999;stroke-opacity:1;enable-background:new"
         id="path1389"
         cx="336"
         cy="148"
         r="14.5" />
      <circle
         style="display:inline;opacity:0.4;vector-effect:none;fill:none;fill-opacity:1;stroke:#000000;stroke-width:1;stroke-linecap:butt;stroke-linejoin:round;stroke-miterlimit:4;stroke-dasharray:none;stroke-dashoffset:6.5999999;stroke-opacity:1;enable-background:new"
         id="path1389-3"
         cx="344"
         cy="84"
         r="22.5" />
      <path
         inkscape:connector-curvature="0"
         style="display:inline;opacity:0.2;fill:#000000;fill-opacity:1;stroke:none;stroke-width:1;stroke-linecap:round;stroke-linejoin:round;stroke-miterlimit:4;stroke-dasharray:none;stroke-opacity:1;enable-background:new"
         d="m 152,267.99999 a 112,112 0 0 1 -112,-112 112,112 0 0 1 0.04102,-1.16992 A 112,112 0 0 0 152,265.99999 112,112 0 0 0 263.95898,155.16991 a 112,112 0 0 1 0.041,0.83008 112,112 0 0 1 -112,112 z"
         id="path11042-1-7" />
      <path
         style="display:inline;opacity:0.3;fill:#ffffff;fill-opacity:1;stroke:none;stroke-width:1;stroke-linecap:round;stroke-linejoin:round;stroke-miterlimit:4;stroke-dasharray:none;stroke-opacity:1;enable-background:new"
         d="M 152,43.999994 A 112,112 0 0 0 40,155.99999 112,112 0 0 0 40.04102,157.16991 112,112 0 0 1 152,45.999994 112,112 0 0 1 263.95898,156.83007 a 112,112 0 0 0 0.041,-0.83008 112,112 0 0 0 -112,-111.999996 z"
         id="path11042-1"
         inkscape:connector-curvature="0" />
    </g>
    <g
       inkscape:groupmode="layer"
       id="layer5"
       inkscape:label="Highlights"
       style="display:inline;opacity:0.8">
      <path
         style="display:inline;opacity:1;fill:url(#linearGradient8590);fill-opacity:1;stroke:none;stroke-width:1.8694036;stroke-linecap:round;stroke-linejoin:round;stroke-miterlimit:4;stroke-dasharray:none;stroke-opacity:1;enable-background:new"
         d="M 344,62.00002 A 22,21.99999 0 0 0 322,84.000017 22,21.99999 0 0 0 344,106 22,21.99999 0 0 0 366,84.000017 22,21.99999 0 0 0 344,62.00002 Z m 0,0.956532 A 21.043478,21.043469 0 0 1 365.04348,84.000017 21.043478,21.043469 0 0 1 344,105.04348 21.043478,21.043469 0 0 1 322.95652,84.000017 21.043478,21.043469 0 0 1 344,62.956552 Z"
         id="path9498-1-6"
         inkscape:connector-curvature="0" />
      <path
         style="display:inline;opacity:1;fill:url(#linearGradient8590-3);fill-opacity:1;stroke:none;stroke-width:1.8694036;stroke-linecap:round;stroke-linejoin:round;stroke-miterlimit:4;stroke-dasharray:none;stroke-opacity:1;enable-background:new"
         d="m 336,134 c -7.73199,0 -14,6.26802 -14,14 0,7.73198 6.26801,14 14,14 7.73199,0 14,-6.26802 14,-14 0,-7.73198 -6.26801,-14 -14,-14 z m 0,1 a 13,13 0 0 1 13,13 13,13 0 0 1 -13,13 13,13 0 0 1 -13,-13 13,13 0 0 1 13,-13 z"
         id="path9498-1-6-7"
         inkscape:connector-curvature="0" />
      <path
         style="display:inline;opacity:1;fill:url(#linearGradient8590-3-3);fill-opacity:1;stroke:none;stroke-width:1.8694036;stroke-linecap:round;stroke-linejoin:round;stroke-miterlimit:4;stroke-dasharray:none;stroke-opacity:1;enable-background:new"
         d="m 332,189 c -6.07513,0 -11,4.92488 -11,11 0,6.07513 4.92487,11 11,11 6.07513,0 11,-4.92487 11,-11 0,-6.07512 -4.92487,-11 -11,-11 z m 0,1 a 10,10 0 0 1 10,10 10,10 0 0 1 -10,10 10,10 0 0 1 -10,-10 10,10 0 0 1 10,-10 z"
         id="path9498-1-6-7-2"
         inkscape:connector-curvature="0" />
      <path
         style="display:inline;opacity:1;fill:url(#linearGradient8590-3-3-4);fill-opacity:1;stroke:none;stroke-width:1.86940372;stroke-linecap:round;stroke-linejoin:round;stroke-miterlimit:4;stroke-dasharray:none;stroke-opacity:1;enable-background:new"
         d="m 328,237 c -3.86599,0 -7,3.13402 -7,7 0,3.86599 3.13401,7 7,7 3.866,0 7,-3.13401 7,-7 0,-3.86598 -3.134,-7 -7,-7 z m 0,1 a 6,6 0 0 1 6,6 6,6 0 0 1 -6,6 6,6 0 0 1 -6,-6 6,6 0 0 1 6,-6 z"
         id="path9498-1-6-7-2-0"
         inkscape:connector-curvature="0" />
    </g>
  </g>
</svg>
